1-ನೈನ್,9,digit 	ಒಂಬತ್ತು,9,digit 	
2-ಫೋರ್,4,digit 	ಗಂಟೆ,:,time 	
3-ಟೂ,2,digit 	ಹದಿನಾಲ್ಕು,14,digit 	
4-ಲೆವೆನ್,11,digit 	ಗಂಟೆ,:,time 	ಹದಿನೇಳು,17,digit 	ನಿಮಿಷ,,time 	
5-ನೈನ್,9,digit 	ಗಂಟೆ,:,time 	
6-ಒಂದು,1,digit 	ಗಂಟೆ,:,time 	
7-ಟೆನ್,10,digit 	ಗಂಟೆ,:,time 	
8-ಒನ್,1,digit 	ನಲವತ್ತನಾಲ್ಕು,44,digit 	
9-ಸಿಕ್ಸ್,6,digit 	ಗಂಟೆ,:,time 	ಇಪ್ಪತ್ತೆಂಟು,28,digit 	ನಿಮಿಷ,,time 	
10-ಏಳು,7,digit 	ಮುಕಾಲು,45,digit 	
11-ಏಟ್,8,digit 	ಗಂಟೆ,:,time 	ನಾಲ್ಕು,4,digit 	ಮಿನಿಟ್ಸ್,,time 	
12-ಐದು,5,digit 	ಗಂಟೆ,:,time 	
13-ಸಿಕ್ಸ್,6,digit 	ಗಂಟೆ,:,time 	ಇಪ್ಪತ್ತಾರು,26,digit 	ಮಿನಿಟ್ಸ್,,time 	
14-ಎರಡು,2,digit 	ಗಂಟೆ,:,time 	ನಲವತ್ತೊಂದು,41,digit 	ನಿಮಿಷ,,time 	
15-ಎರಡು,2,digit 	ಗಂಟೆ,:,time 	ಮೂವತ್ತಮೂರು,33,digit 	ನಿಮಿಷ,,time 	
16-ಒನ್,1,digit 	ಗಂಟೆ,:,time 	ಥರ್ಟಿ,30,digit 	ಮಿನಿಟ್ಸ್,,time 	
17-ಹನ್ನೆರಡು,12,digit 	ಹದಿನೆಂಟು,18,digit 	
18-ಆರು,6,digit 	ಗಂಟೆ,:,time 	ನಲವತ್ತೇಳು,47,digit 	ಮಿನಿಟ್ಸ್,,time 	
19-ಫೋರ್,4,digit 	ಇಪ್ಪತ್ತಾರು,26,digit 	
20-ಏಟ್,8,digit 	ಮೂವತ್ತೇಳು,37,digit 	
21-ಎರಡು,2,digit 	ಗಂಟೆ,:,time 	ಹತ್ತೊಂಬತ್ತು,19,digit 	ನಿಮಿಷ,,time 	
22-ಆರು,6,digit 	ಒಂದು,1,digit 	
23-ಒನ್,1,digit 	ಗಂಟೆ,:,time 	ಹದಿನಾರು,16,digit 	ಮಿನಿಟ್ಸ್,,time 	
24-ಒನ್,1,digit 	ಅವರ್,:,time 	ಹದಿನಾರು,16,digit 	ನಿಮಿಷ,,time 	
25-ಟೆನ್,10,digit 	ನಲವತ್ತನಾಲ್ಕು,44,digit 	
26-ಏಳು,7,digit 	ಗಂಟೆ,:,time 	ಹತ್ತೊಂಬತ್ತು,19,digit 	ನಿಮಿಷ,,time 	
27-ಒನ್,1,digit 	ಇಪ್ಪತ್ತೈದು,25,digit 	
28-ಲೆವೆನ್,11,digit 	ನಲವತ್ತೊಂಬತ್ತು,49,digit 	
29-ಒಂದು,1,digit 	ಮೂವತ್ತಮೂರು,33,digit 	
30-ಒನ್,1,digit 	ಗಂಟೆ,:,time 	
31-ಟವೆಲ್,12,digit 	ಗಂಟೆ,:,time 	
32-ನೈನ್,9,digit 	ಗಂಟೆ,:,time 	ಐವತ್ನಾಲ್ಕು,54,digit 	ನಿಮಿಷ,,time 	
33-ಫೋರ್,4,digit 	ಕಾಲು,15,digit 	
34-ಐದು,5,digit 	ಮೂರು,3,digit 	
35-ಫೈವ್,5,digit 	ಗಂಟೆ,:,time 	ಫಾರ್ಟಿ,40,digit 	ಮಿನಿಟ್ಸ್,,time 	
36-ಟವೆಲ್,12,digit 	ನಲವತ್ತೆರಡು,42,digit 	
37-ಲೆವೆನ್,11,digit 	ಗಂಟೆ,:,time 	ಮೂವತ್ತಾರು,36,digit 	ಮಿನಿಟ್ಸ್,,time 	
38-ಎರಡು,2,digit 	ಗಂಟೆ,:,time 	
39-ಆರು,6,digit 	ಗಂಟೆ,:,time 	ಐವತ್ತೊಂಬತ್ತು,59,digit 	ಮಿನಿಟ್ಸ್,,time 	
40-ನೈನ್,9,digit 	ಗಂಟೆ,:,time 	ಮೂವತ್ತೇಳು,37,digit 	ಮಿನಿಟ್ಸ್,,time 	
41-ನಾಲ್ಕು,4,digit 	ಗಂಟೆ,:,time 	
42-ಏಟ್,8,digit 	ಗಂಟೆ,:,time 	
43-ಏಳು,7,digit 	ಗಂಟೆ,:,time 	
44-ಎರಡು,2,digit 	ಗಂಟೆ,:,time 	ಮೂವತ್ತೆಂಟು,38,digit 	ನಿಮಿಷ,,time 	
45-ಫೈವ್,5,digit 	ಗಂಟೆ,:,time 	
46-ಟವೆಲ್,12,digit 	ಒಂದು,1,digit 	
47-ಸೆವೆನ್,7,digit 	ಅವರ್,:,time 	ಆರು,6,digit 	ನಿಮಿಷ,,time 	
48-ಹತ್ತು,10,digit 	ಹತ್ತೊಂಬತ್ತು,19,digit 	
49-ಟೆನ್,10,digit 	ಗಂಟೆ,:,time 	
50-ನೈನ್,9,digit 	ಗಂಟೆ,:,time 	
51-ಆರು,6,digit 	ಗಂಟೆ,:,time 	ನಲವತ್ಮೂರು,43,digit 	ಮಿನಿಟ್ಸ್,,time 	
52-ಏಳು,7,digit 	ಅವರ್,:,time 	ಮೂವತ್ತೇಳು,37,digit 	ನಿಮಿಷ,,time 	
53-ಫೋರ್,4,digit 	ಮೂವತ್ತಮೂರು,33,digit 	
54-ಏಟ್,8,digit 	ಐವತ್ತೆರಡು,52,digit 	
55-ಫೈವ್,5,digit 	ಗಂಟೆ,:,time 	ನಲವತ್ತಾರು,46,digit 	ನಿಮಿಷ,,time 	
56-ಲೆವೆನ್,11,digit 	ಗಂಟೆ,:,time 	
57-ಆರು,6,digit 	ಗಂಟೆ,:,time 	ನಲವತ್ತೊಂದು,41,digit 	ನಿಮಿಷ,,time 	
58-ಹತ್ತು,10,digit 	ಗಂಟೆ,:,time 	ಮೂವತ್ತಮೂರು,33,digit 	ನಿಮಿಷ,,time 	
59-ಫೋರ್,4,digit 	ಗಂಟೆ,:,time 	
60-ಒಂದು,1,digit 	ಗಂಟೆ,:,time 	ಮೂವತ್ತೊಂಬತ್ತು,39,digit 	ಮಿನಿಟ್ಸ್,,time 	
61-ಟವೆಲ್,12,digit 	ಗಂಟೆ,:,time 	
62-ಹನ್ನೊಂದು,11,digit 	ಗಂಟೆ,:,time 	
63-ಹತ್ತು,10,digit 	ಒಂಬತ್ತು,9,digit 	
64-ತ್ರೀ,3,digit 	ಗಂಟೆ,:,time 	ಮೂವತ್ತೇಳು,37,digit 	ಮಿನಿಟ್ಸ್,,time 	
65-ಒನ್,1,digit 	ಐವತ್ತಾರು,56,digit 	
66-ಸಿಕ್ಸ್,6,digit 	ಐವತ್ತಾರು,56,digit 	
67-ಒಂಬತ್ತು,9,digit 	ಫಾರ್ಟೀಫೈವ್,45,digit 	
68-ಐದು,5,digit 	ಗಂಟೆ,:,time 	ಮೂವತ್ತೊಂಬತ್ತು,39,digit 	ಮಿನಿಟ್ಸ್,,time 	
69-ಲೆವೆನ್,11,digit 	ಅವರ್,:,time 	
70-ಹನ್ನೊಂದು,11,digit 	ನಲವತ್ತು,40,digit 	
71-ಟವೆಲ್,12,digit 	ಅವರ್,:,time 	
72-ಹನ್ನೊಂದು,11,digit 	ಗಂಟೆ,:,time 	
73-ಏಟ್,8,digit 	ಗಂಟೆ,:,time 	
74-ಆರು,6,digit 	ಇಪ್ಪತ್ತೆರಡು,22,digit 	
75-ಏಳು,7,digit 	ಇಪ್ಪತ್ತೊಂದು,21,digit 	
76-ಫೈವ್,5,digit 	ಗಂಟೆ,:,time 	ಒಂಬತ್ತು,9,digit 	ನಿಮಿಷ,,time 	
77-ಹನ್ನೆರಡು,12,digit 	ಗಂಟೆ,:,time 	
78-ಲೆವೆನ್,11,digit 	ಗಂಟೆ,:,time 	
79-ಮೂರು,3,digit 	ಇಪ್ಪತ್ಮೂರು,23,digit 	
80-ಮೂರು,3,digit 	ಗಂಟೆ,:,time 	
81-ಫೋರ್,4,digit 	ಗಂಟೆ,:,time 	ಇಪ್ಪತ್ತೈದು,25,digit 	ಮಿನಿಟ್ಸ್,,time 	
82-ಆರು,6,digit 	ಇಪ್ಪತ್ತಾರು,26,digit 	
83-ಮೂರು,3,digit 	ಇಪ್ಪತ್ತೊಂದು,21,digit 	
84-ಟೂ,2,digit 	ಗಂಟೆ,:,time 	ನಲವತ್ಮೂರು,43,digit 	ನಿಮಿಷ,,time 	
85-ನೈನ್,9,digit 	ಗಂಟೆ,:,time 	
86-ಫೈವ್,5,digit 	ಅವರ್,:,time 	ಹನ್ನೆರಡು,12,digit 	ನಿಮಿಷ,,time 	
87-ಎಂಟು,8,digit 	ಕಾಲು,15,digit 	
88-ಹತ್ತು,10,digit 	ಗಂಟೆ,:,time 	ಐವತ್ನಾಲ್ಕು,54,digit 	ಮಿನಿಟ್ಸ್,,time 	
89-ಹನ್ನೆರಡು,12,digit 	ಗಂಟೆ,:,time 	
90-ಏಳು,7,digit 	ಗಂಟೆ,:,time 	ಹದಿನಾಲ್ಕು,14,digit 	ನಿಮಿಷ,,time 	
91-ಏಟ್,8,digit 	ಅವರ್,:,time 	
92-ಸಿಕ್ಸ್,6,digit 	ಗಂಟೆ,:,time 	ಐವತ್ತೆಂಟು,58,digit 	ನಿಮಿಷ,,time 	
93-ಟವೆಲ್,12,digit 	ವರೆ,30,digit 	
94-ಐದು,5,digit 	ಐವತ್ತಮೂರು,53,digit 	
95-ಟೂ,2,digit 	ಗಂಟೆ,:,time 	
96-ಒನ್,1,digit 	ಮೂವತ್ತೊಂಬತ್ತು,39,digit 	
97-ಒನ್,1,digit 	ಮೂವತ್ತೈದು,35,digit 	
98-ಒನ್,1,digit 	ಗಂಟೆ,:,time 	
99-ಒಂದು,1,digit 	ಹತ್ತೊಂಬತ್ತು,19,digit 	
100-ಎಂಟು,8,digit 	ಗಂಟೆ,:,time 	ಇಪ್ಪತ್ತೈದು,25,digit 	ನಿಮಿಷ,,time 	
101-ಏಳು,7,digit 	ಗಂಟೆ,:,time 	
102-ಫೈವ್,5,digit 	ಇಪ್ಪತ್ತೇಳು,27,digit 	
103-ಟವೆಲ್,12,digit 	ಗಂಟೆ,:,time 	ನಲವತ್ತನಾಲ್ಕು,44,digit 	ಮಿನಿಟ್ಸ್,,time 	
104-ಟೆನ್,10,digit 	ಐವತ್ತೆಂಟು,58,digit 	
105-ಹತ್ತು,10,digit 	ಗಂಟೆ,:,time 	
106-ಹನ್ನೆರಡು,12,digit 	ಗಂಟೆ,:,time 	
107-ಫೈವ್,5,digit 	ಗಂಟೆ,:,time 	ಹದಿಮೂರು,13,digit 	ನಿಮಿಷ,,time 	
108-ಆರು,6,digit 	ಗಂಟೆ,:,time 	ಟ್ವೆಂಟಿ,20,digit 	ನಿಮಿಷ,,time 	
109-ಒಂಬತ್ತು,9,digit 	ಗಂಟೆ,:,time 	ನಲವತ್ಮೂರು,43,digit 	ನಿಮಿಷ,,time 	
110-ಟೂ,2,digit 	ಗಂಟೆ,:,time 	ಇಪ್ಪತ್ತಾರು,26,digit 	ನಿಮಿಷ,,time 	
111-ಒನ್,1,digit 	ಒಂಬತ್ತು,9,digit 	
112-ಲೆವೆನ್,11,digit 	ಗಂಟೆ,:,time 	ಫಾರ್ಟಿ,40,digit 	ನಿಮಿಷ,,time 	
113-ಆರು,6,digit 	ಗಂಟೆ,:,time 	
114-ಆರು,6,digit 	ಗಂಟೆ,:,time 	ನಲವತ್ತೆಂಟು,48,digit 	ನಿಮಿಷ,,time 	
115-ಏಳು,7,digit 	ಗಂಟೆ,:,time 	
116-ಒಂಬತ್ತು,9,digit 	ಮೂವತ್ತಾರು,36,digit 	
117-ಹನ್ನೊಂದು,11,digit 	ಇಪ್ಪತ್ತೊಂಬತ್ತು,29,digit 	
118-ಎಂಟು,8,digit 	ಅವರ್,:,time 	
119-ಟೂ,2,digit 	ಐವತ್ತೇಳು,57,digit 	
120-ನಾಲ್ಕು,4,digit 	ಅವರ್,:,time 	
121-ಸೆವೆನ್,7,digit 	ಗಂಟೆ,:,time 	ಒಂದು,1,digit 	ಮಿನಿಟ್ಸ್,,time 	
122-ಏಟ್,8,digit 	ಗಂಟೆ,:,time 	
123-ತ್ರೀ,3,digit 	ನಲವತ್ತೇಳು,47,digit 	
124-ಏಳು,7,digit 	ಗಂಟೆ,:,time 	
125-ಆರು,6,digit 	ಹದಿನಾಲ್ಕು,14,digit 	
126-ಲೆವೆನ್,11,digit 	ಐವತ್ತೇಳು,57,digit 	
127-ಮೂರು,3,digit 	ಗಂಟೆ,:,time 	ಒಂದು,1,digit 	ಮಿನಿಟ್ಸ್,,time 	
128-ತ್ರೀ,3,digit 	ಗಂಟೆ,:,time 	ಐವತ್ತೊಂಬತ್ತು,59,digit 	ಮಿನಿಟ್ಸ್,,time 	
129-ಏಳು,7,digit 	ಹದಿನಾಲ್ಕು,14,digit 	
130-ನಾಲ್ಕು,4,digit 	ನಲವತ್ತಾರು,46,digit 	
131-ಹನ್ನೆರಡು,12,digit 	ಗಂಟೆ,:,time 	ಒಂಬತ್ತು,9,digit 	ಮಿನಿಟ್ಸ್,,time 	
132-ನೈನ್,9,digit 	ಅವರ್,:,time 	ಇಪ್ಪತ್ತೊಂಬತ್ತು,29,digit 	ಮಿನಿಟ್ಸ್,,time 	
133-ಎರಡು,2,digit 	ಮೂವತ್ತೈದು,35,digit 	
134-ತ್ರೀ,3,digit 	ಮೂವತ್ತಮೂರು,33,digit 	
135-ಒಂದು,1,digit 	ಅವರ್,:,time 	ನಲವತ್ತೊಂಬತ್ತು,49,digit 	ನಿಮಿಷ,,time 	
136-ಟೂ,2,digit 	ಗಂಟೆ,:,time 	
137-ಹನ್ನೊಂದು,11,digit 	ಗಂಟೆ,:,time 	
138-ಎಂಟು,8,digit 	ಮೂವತ್ತೆರಡು,32,digit 	
139-ಒಂದು,1,digit 	ಗಂಟೆ,:,time 	ಐವತ್ತೈದು,55,digit 	ಮಿನಿಟ್ಸ್,,time 	
140-ಸಿಕ್ಸ್,6,digit 	ಇಪ್ಪತ್ತೊಂದು,21,digit 	
141-ತ್ರೀ,3,digit 	ಗಂಟೆ,:,time 	ಎಂಟು,8,digit 	ಮಿನಿಟ್ಸ್,,time 	
142-ಮೂರು,3,digit 	ಗಂಟೆ,:,time 	ಒಂಬತ್ತು,9,digit 	ಮಿನಿಟ್ಸ್,,time 	
143-ಆರು,6,digit 	ಗಂಟೆ,:,time 	ಐವತ್ತೊಂಬತ್ತು,59,digit 	ಮಿನಿಟ್ಸ್,,time 	
144-ಮೂರು,3,digit 	ನಲವತ್ತೆಂಟು,48,digit 	
145-ಫೈವ್,5,digit 	ಗಂಟೆ,:,time 	
146-ಸಿಕ್ಸ್,6,digit 	ಗಂಟೆ,:,time 	
147-ಹನ್ನೊಂದು,11,digit 	ಹನ್ನೆರಡು,12,digit 	
148-ಫೋರ್,4,digit 	ಇಪ್ಪತ್ತಾರು,26,digit 	
149-ಎಂಟು,8,digit 	ಅವರ್,:,time 	ಐದು,5,digit 	ಮಿನಿಟ್ಸ್,,time 	
150-ಹನ್ನೆರಡು,12,digit 	ಗಂಟೆ,:,time 	
151-ಎಂಟು,8,digit 	ಆರು,6,digit 	
152-ತ್ರೀ,3,digit 	ಗಂಟೆ,:,time 	ಹನ್ನೆರಡು,12,digit 	ಮಿನಿಟ್ಸ್,,time 	
153-ಸೆವೆನ್,7,digit 	ಗಂಟೆ,:,time 	
154-ನಾಲ್ಕು,4,digit 	ಅವರ್,:,time 	
155-ಮೂರು,3,digit 	ನಲವತ್ತೊಂಬತ್ತು,49,digit 	
156-ಏಳು,7,digit 	ಒಂಬತ್ತು,9,digit 	
157-ಹನ್ನೆರಡು,12,digit 	ಇಪ್ಪತ್ಮೂರು,23,digit 	
158-ಹನ್ನೆರಡು,12,digit 	ಗಂಟೆ,:,time 	
159-ಹತ್ತು,10,digit 	ಇಪ್ಪತ್ತೆರಡು,22,digit 	
160-ಎರಡು,2,digit 	ಗಂಟೆ,:,time 	ಐದು,5,digit 	ನಿಮಿಷ,,time 	
161-ಏಳು,7,digit 	ಗಂಟೆ,:,time 	
162-ಸಿಕ್ಸ್,6,digit 	ಅವರ್,:,time 	ಐವತ್ತೆಂಟು,58,digit 	ಮಿನಿಟ್ಸ್,,time 	
163-ಎರಡು,2,digit 	ನಲವತ್ತಾರು,46,digit 	
164-ನಾಲ್ಕು,4,digit 	ಹತ್ತೊಂಬತ್ತು,19,digit 	
165-ನೈನ್,9,digit 	ಗಂಟೆ,:,time 	ಒಂಬತ್ತು,9,digit 	ನಿಮಿಷ,,time 	
166-ನೈನ್,9,digit 	ಗಂಟೆ,:,time 	ಮೂವತ್ತಮೂರು,33,digit 	ಮಿನಿಟ್ಸ್,,time 	
167-ಟವೆಲ್,12,digit 	ಅವರ್,:,time 	ಮೂವತ್ತೆಂಟು,38,digit 	ನಿಮಿಷ,,time 	
168-ಒನ್,1,digit 	ವರೆ,30,digit 	
169-ನೈನ್,9,digit 	ನಲವತ್ತೇಳು,47,digit 	
170-ಮೂರು,3,digit 	ಗಂಟೆ,:,time 	
171-ಫೋರ್,4,digit 	ಗಂಟೆ,:,time 	
172-ನೈನ್,9,digit 	ಟೆನ್,10,digit 	
173-ಎಂಟು,8,digit 	ಗಂಟೆ,:,time 	ನಲವತ್ತೊಂದು,41,digit 	ಮಿನಿಟ್ಸ್,,time 	
174-ಹನ್ನೆರಡು,12,digit 	ಗಂಟೆ,:,time 	ಐವತ್ತು,50,digit 	ನಿಮಿಷ,,time 	
175-ಹತ್ತು,10,digit 	ಇಪ್ಪತ್ತೊಂದು,21,digit 	
176-ಹನ್ನೆರಡು,12,digit 	ಗಂಟೆ,:,time 	
177-ಸೆವೆನ್,7,digit 	ಇಪ್ಪತ್ನಾಕು,24,digit 	
178-ಹನ್ನೆರಡು,12,digit 	ಹದಿನಾಲ್ಕು,14,digit 	
179-ಆರು,6,digit 	ಗಂಟೆ,:,time 	
180-ಒಂದು,1,digit 	ಗಂಟೆ,:,time 	
181-ಒಂದು,1,digit 	ಹದಿನೈದು,15,digit 	
182-ಆರು,6,digit 	ಗಂಟೆ,:,time 	ಹದಿನೇಳು,17,digit 	ಮಿನಿಟ್ಸ್,,time 	
183-ಐದು,5,digit 	ಗಂಟೆ,:,time 	
184-ಟೆನ್,10,digit 	ಗಂಟೆ,:,time 	ಐವತ್ತೊಂದು,51,digit 	ನಿಮಿಷ,,time 	
185-ಟೂ,2,digit 	ಗಂಟೆ,:,time 	
186-ಆರು,6,digit 	ನಲವತ್ಮೂರು,43,digit 	
187-ಸಿಕ್ಸ್,6,digit 	ಮೂವತ್ತನಾಲ್ಕು,34,digit 	
188-ಲೆವೆನ್,11,digit 	ಗಂಟೆ,:,time 	ನಲವತ್ತೊಂಬತ್ತು,49,digit 	ನಿಮಿಷ,,time 	
189-ಟವೆಲ್,12,digit 	ಇಪ್ಪತ್ತೆಂಟು,28,digit 	
190-ಒಂಬತ್ತು,9,digit 	ಟ್ವೆಂಟಿ,20,digit 	
191-ಸೆವೆನ್,7,digit 	ಗಂಟೆ,:,time 	
192-ಆರು,6,digit 	ಗಂಟೆ,:,time 	ಮೂವತ್ತೊಂಬತ್ತು,39,digit 	ಮಿನಿಟ್ಸ್,,time 	
193-ಹನ್ನೊಂದು,11,digit 	ಗಂಟೆ,:,time 	
194-ಎಂಟು,8,digit 	ಮೂವತ್ತೈದು,35,digit 	
195-ಟವೆಲ್,12,digit 	ನಲವತ್ತಾರು,46,digit 	
196-ಟೆನ್,10,digit 	ಐವತ್ತೆರಡು,52,digit 	
197-ಲೆವೆನ್,11,digit 	ಗಂಟೆ,:,time 	
198-ನಾಲ್ಕು,4,digit 	ಗಂಟೆ,:,time 	ಮೂವತ್ತೊಂದು,31,digit 	ಮಿನಿಟ್ಸ್,,time 	
199-ಹನ್ನೆರಡು,12,digit 	ಗಂಟೆ,:,time 	
200-ಮೂರು,3,digit 	ಗಂಟೆ,:,time 	
201-ನಾಲ್ಕು,4,digit 	ಮೂರು,3,digit 	
202-ಐದು,5,digit 	ಗಂಟೆ,:,time 	
203-ಫೋರ್,4,digit 	ಗಂಟೆ,:,time 	ಮೂವತ್ತೆರಡು,32,digit 	ನಿಮಿಷ,,time 	
204-ಎಂಟು,8,digit 	ಗಂಟೆ,:,time 	
205-ಮೂರು,3,digit 	ಅವರ್,:,time 	
206-ಒಂಬತ್ತು,9,digit 	ಗಂಟೆ,:,time 	
207-ಟೆನ್,10,digit 	ಗಂಟೆ,:,time 	ಒಂಬತ್ತು,9,digit 	ನಿಮಿಷ,,time 	
208-ಏಳು,7,digit 	ಇಪ್ಪತ್ತಾರು,26,digit 	
209-ಎರಡು,2,digit 	ಐವತ್ತೊಂದು,51,digit 	
210-ಮೂರು,3,digit 	ನಲವತ್ತೊಂಬತ್ತು,49,digit 	
211-ಫೋರ್,4,digit 	ಐವತ್ತಾರು,56,digit 	
212-ಎರಡು,2,digit 	ಗಂಟೆ,:,time 	
213-ಫೈವ್,5,digit 	ಗಂಟೆ,:,time 	ಐವತ್ತೇಳು,57,digit 	ನಿಮಿಷ,,time 	
214-ಮೂರು,3,digit 	ಮೂವತ್ತೈದು,35,digit 	
215-ಟೂ,2,digit 	ಐವತ್ತಮೂರು,53,digit 	
216-ಫೈವ್,5,digit 	ಗಂಟೆ,:,time 	ಐವತ್ತೊಂಬತ್ತು,59,digit 	ನಿಮಿಷ,,time 	
217-ತ್ರೀ,3,digit 	ಒಂದು,1,digit 	
218-ಐದು,5,digit 	ಗಂಟೆ,:,time 	
219-ಹತ್ತು,10,digit 	ಅವರ್,:,time 	ಐವತ್ತೇಳು,57,digit 	ಮಿನಿಟ್ಸ್,,time 	
220-ಸಿಕ್ಸ್,6,digit 	ಇಪ್ಪತ್ಮೂರು,23,digit 	
221-ಸೆವೆನ್,7,digit 	ಗಂಟೆ,:,time 	ಇಪ್ಪತ್ತೆಂಟು,28,digit 	ಮಿನಿಟ್ಸ್,,time 	
222-ಸೆವೆನ್,7,digit 	ಅವರ್,:,time 	
223-ಟವೆಲ್,12,digit 	ಗಂಟೆ,:,time 	
224-ನೈನ್,9,digit 	ಗಂಟೆ,:,time 	
225-ಸಿಕ್ಸ್,6,digit 	ಗಂಟೆ,:,time 	ಹತ್ತು,10,digit 	ಮಿನಿಟ್ಸ್,,time 	
226-ಏಟ್,8,digit 	ಗಂಟೆ,:,time 	ಮೂವತ್ತೆಂಟು,38,digit 	ಮಿನಿಟ್ಸ್,,time 	
227-ಮೂರು,3,digit 	ಗಂಟೆ,:,time 	ಹನ್ನೊಂದು,11,digit 	ಮಿನಿಟ್ಸ್,,time 	
228-ಹತ್ತು,10,digit 	ಗಂಟೆ,:,time 	
229-ಹನ್ನೊಂದು,11,digit 	ಗಂಟೆ,:,time 	
230-ಎರಡು,2,digit 	ಗಂಟೆ,:,time 	
231-ಲೆವೆನ್,11,digit 	ಗಂಟೆ,:,time 	
232-ಹನ್ನೊಂದು,11,digit 	ಗಂಟೆ,:,time 	ಮೂವತ್ತೈದು,35,digit 	ನಿಮಿಷ,,time 	
233-ಮೂರು,3,digit 	ಅವರ್,:,time 	ಹತ್ತೊಂಬತ್ತು,19,digit 	ಮಿನಿಟ್ಸ್,,time 	
234-ಏಳು,7,digit 	ಗಂಟೆ,:,time 	
235-ಟವೆಲ್,12,digit 	ಅವರ್,:,time 	
236-ಹನ್ನೊಂದು,11,digit 	ಗಂಟೆ,:,time 	
237-ಹನ್ನೊಂದು,11,digit 	ಗಂಟೆ,:,time 	ಮೂವತ್ತೈದು,35,digit 	ಮಿನಿಟ್ಸ್,,time 	
238-ಟವೆಲ್,12,digit 	ಇಪ್ಪತ್ತೊಂಬತ್ತು,29,digit 	
239-ಮೂರು,3,digit 	ಗಂಟೆ,:,time 	
240-ಆರು,6,digit 	ಗಂಟೆ,:,time 	ಒಂದು,1,digit 	ನಿಮಿಷ,,time 	
241-ಫೋರ್,4,digit 	ಆರು,6,digit 	
242-ತ್ರೀ,3,digit 	ನಲವತ್ತೊಂಬತ್ತು,49,digit 	
243-ಏಟ್,8,digit 	ಮೂವತ್ತೇಳು,37,digit 	
244-ಹತ್ತು,10,digit 	ಅವರ್,:,time 	
245-ಆರು,6,digit 	ಗಂಟೆ,:,time 	ಒಂಬತ್ತು,9,digit 	ಮಿನಿಟ್ಸ್,,time 	
246-ಸೆವೆನ್,7,digit 	ಗಂಟೆ,:,time 	ಐವತ್ತೈದು,55,digit 	ನಿಮಿಷ,,time 	
247-ಎರಡು,2,digit 	ಗಂಟೆ,:,time 	ಎಂಟು,8,digit 	ನಿಮಿಷ,,time 	
248-ಎರಡು,2,digit 	ಗಂಟೆ,:,time 	
249-ಫೋರ್,4,digit 	ಗಂಟೆ,:,time 	ಒಂದು,1,digit 	ಮಿನಿಟ್ಸ್,,time 	
250-ನಾಲ್ಕು,4,digit 	ಅವರ್,:,time 	ಇಪ್ಪತ್ಮೂರು,23,digit 	ನಿಮಿಷ,,time 	
251-ಟವೆಲ್,12,digit 	ಐದು,5,digit 	
252-ಸೆವೆನ್,7,digit 	ಗಂಟೆ,:,time 	
253-ಏಟ್,8,digit 	ಗಂಟೆ,:,time 	ಮೂರು,3,digit 	ನಿಮಿಷ,,time 	
254-ಏಟ್,8,digit 	ಗಂಟೆ,:,time 	
255-ಟವೆಲ್,12,digit 	ಗಂಟೆ,:,time 	
256-ಒಂದು,1,digit 	ಮೂವತ್ತನಾಲ್ಕು,34,digit 	
257-ಫೋರ್,4,digit 	ಗಂಟೆ,:,time 	
258-ಟೂ,2,digit 	ಅವರ್,:,time 	ಐವತ್ತು,50,digit 	ಮಿನಿಟ್ಸ್,,time 	
259-ಸಿಕ್ಸ್,6,digit 	ಗಂಟೆ,:,time 	ಐವತ್ತಾರು,56,digit 	ನಿಮಿಷ,,time 	
260-ಸಿಕ್ಸ್,6,digit 	ಗಂಟೆ,:,time 	
261-ಸಿಕ್ಸ್,6,digit 	ಗಂಟೆ,:,time 	
262-ನಾಲ್ಕು,4,digit 	ಗಂಟೆ,:,time 	ಒಂದು,1,digit 	ನಿಮಿಷ,,time 	
263-ಲೆವೆನ್,11,digit 	ಗಂಟೆ,:,time 	
264-ಟೆನ್,10,digit 	ಗಂಟೆ,:,time 	
265-ಎಂಟು,8,digit 	ಗಂಟೆ,:,time 	ನಲವತ್ತೇಳು,47,digit 	ಮಿನಿಟ್ಸ್,,time 	
266-ಎರಡು,2,digit 	ನಲವತ್ತನಾಲ್ಕು,44,digit 	
267-ನಾಲ್ಕು,4,digit 	ಇಪ್ಪತ್ತಾರು,26,digit 	
268-ನೈನ್,9,digit 	ಗಂಟೆ,:,time 	
269-ಫೈವ್,5,digit 	ಎರಡು,2,digit 	
270-ಎಂಟು,8,digit 	ಗಂಟೆ,:,time 	ಮೂವತ್ತು,30,digit 	ನಿಮಿಷ,,time 	
271-ಫೈವ್,5,digit 	ಇಪ್ಪತ್ನಾಲ್ಕು,24,digit 	
272-ಮೂರು,3,digit 	ಗಂಟೆ,:,time 	
273-ಒಂದು,1,digit 	ಗಂಟೆ,:,time 	
274-ಏಟ್,8,digit 	ಗಂಟೆ,:,time 	
275-ನೈನ್,9,digit 	ಅವರ್,:,time 	
276-ಟೆನ್,10,digit 	ಗಂಟೆ,:,time 	
277-ಏಳು,7,digit 	ಗಂಟೆ,:,time 	ಮೂವತ್ತೊಂಬತ್ತು,39,digit 	ಮಿನಿಟ್ಸ್,,time 	
278-ತ್ರೀ,3,digit 	ಮೂವತ್ತೈದು,35,digit 	
279-ಏಟ್,8,digit 	ಗಂಟೆ,:,time 	
280-ಆರು,6,digit 	ಗಂಟೆ,:,time 	ಹದಿಮೂರು,13,digit 	ಮಿನಿಟ್ಸ್,,time 	
281-ನೈನ್,9,digit 	ನಲವತ್ತಾರು,46,digit 	
282-ಒನ್,1,digit 	ಅವರ್,:,time 	ಹನ್ನೆರಡು,12,digit 	ಮಿನಿಟ್ಸ್,,time 	
283-ಸೆವೆನ್,7,digit 	ಗಂಟೆ,:,time 	ಆರು,6,digit 	ನಿಮಿಷ,,time 	
284-ನೈನ್,9,digit 	ಗಂಟೆ,:,time 	
285-ಒಂಬತ್ತು,9,digit 	ಗಂಟೆ,:,time 	ಇಪ್ಪತ್ತೆರಡು,22,digit 	ಮಿನಿಟ್ಸ್,,time 	
286-ಸೆವೆನ್,7,digit 	ಗಂಟೆ,:,time 	
287-ಸಿಕ್ಸ್,6,digit 	ಐವತ್ತೇಳು,57,digit 	
288-ಸೆವೆನ್,7,digit 	ಗಂಟೆ,:,time 	
289-ನಾಲ್ಕು,4,digit 	ಗಂಟೆ,:,time 	
290-ಟೆನ್,10,digit 	ಅವರ್,:,time 	
291-ಟೆನ್,10,digit 	ಗಂಟೆ,:,time 	
292-ನೈನ್,9,digit 	ಹದಿನೆಂಟು,18,digit 	
293-ಸಿಕ್ಸ್,6,digit 	ಗಂಟೆ,:,time 	ಹದಿನೈದು,15,digit 	ಮಿನಿಟ್ಸ್,,time 	
294-ಎಂಟು,8,digit 	ಗಂಟೆ,:,time 	
295-ಏಟ್,8,digit 	ಎರಡು,2,digit 	
296-ಏಟ್,8,digit 	ಗಂಟೆ,:,time 	
297-ಎರಡು,2,digit 	ಗಂಟೆ,:,time 	ನಲವತ್ತೈದು,45,digit 	ಮಿನಿಟ್ಸ್,,time 	
298-ಟವೆಲ್,12,digit 	ಗಂಟೆ,:,time 	
299-ಏಟ್,8,digit 	ಗಂಟೆ,:,time 	ಮೂವತ್ತನಾಲ್ಕು,34,digit 	ನಿಮಿಷ,,time 	
300-ಮೂರು,3,digit 	ನಲವತ್ತಾರು,46,digit 	
301-ಟವೆಲ್,12,digit 	ಎಂಟು,8,digit 	
302-ಟೆನ್,10,digit 	ಗಂಟೆ,:,time 	ಐವತ್ತೊಂದು,51,digit 	ಮಿನಿಟ್ಸ್,,time 	
303-ಫೈವ್,5,digit 	ಗಂಟೆ,:,time 	
304-ಆರು,6,digit 	ಗಂಟೆ,:,time 	ಹದಿನಾಲ್ಕು,14,digit 	ಮಿನಿಟ್ಸ್,,time 	
305-ಮೂರು,3,digit 	ಅವರ್,:,time 	ಇಪ್ಪತ್ತೆಂಟು,28,digit 	ಮಿನಿಟ್ಸ್,,time 	
306-ಲೆವೆನ್,11,digit 	ಗಂಟೆ,:,time 	ಹದಿನಾಲ್ಕು,14,digit 	ಮಿನಿಟ್ಸ್,,time 	
307-ಏಟ್,8,digit 	ಗಂಟೆ,:,time 	ಇಪ್ಪತ್ತೈದು,25,digit 	ನಿಮಿಷ,,time 	
308-ಆರು,6,digit 	ಮೂವತ್ತಮೂರು,33,digit 	
309-ಹನ್ನೆರಡು,12,digit 	ಗಂಟೆ,:,time 	
310-ಹನ್ನೆರಡು,12,digit 	ಗಂಟೆ,:,time 	ಹದಿಮೂರು,13,digit 	ನಿಮಿಷ,,time 	
311-ಹತ್ತು,10,digit 	ಗಂಟೆ,:,time 	
312-ತ್ರೀ,3,digit 	ಇಪ್ಪತ್ತೆಂಟು,28,digit 	
313-ಎರಡು,2,digit 	ಗಂಟೆ,:,time 	
314-ಟವೆಲ್,12,digit 	ಇಪ್ಪತ್ತೆಂಟು,28,digit 	
315-ಹತ್ತು,10,digit 	ಗಂಟೆ,:,time 	ಮೂವತ್ತೈದು,35,digit 	ನಿಮಿಷ,,time 	
316-ಒಂದು,1,digit 	ನಲವತ್ಮೂರು,43,digit 	
317-ಟೂ,2,digit 	ಇಪ್ಪತ್ತೊಂಬತ್ತು,29,digit 	
318-ಸಿಕ್ಸ್,6,digit 	ಗಂಟೆ,:,time 	ನಾಲ್ಕು,4,digit 	ಮಿನಿಟ್ಸ್,,time 	
319-ಆರು,6,digit 	ಐವತ್ತಮೂರು,53,digit 	
320-ಫೋರ್,4,digit 	ಗಂಟೆ,:,time 	
321-ಎರಡು,2,digit 	ಗಂಟೆ,:,time 	ಇಪ್ಪತ್ತೊಂದು,21,digit 	ಮಿನಿಟ್ಸ್,,time 	
322-ಐದು,5,digit 	ಗಂಟೆ,:,time 	
323-ಆರು,6,digit 	ಗಂಟೆ,:,time 	
324-ಎರಡು,2,digit 	ಅವರ್,:,time 	ಮೂವತ್ತೆಂಟು,38,digit 	ನಿಮಿಷ,,time 	
325-ಟವೆಲ್,12,digit 	ಗಂಟೆ,:,time 	ಮೂವತ್ತಮೂರು,33,digit 	ನಿಮಿಷ,,time 	
326-ಸೆವೆನ್,7,digit 	ಮೂವತ್ತಮೂರು,33,digit 	
327-ಹನ್ನೆರಡು,12,digit 	ಹದಿಮೂರು,13,digit 	
328-ಒಂದು,1,digit 	ಐದು,5,digit 	
329-ಒಂದು,1,digit 	ಗಂಟೆ,:,time 	
330-ಹನ್ನೊಂದು,11,digit 	ಮೂವತ್ತೆಂಟು,38,digit 	
331-ಸೆವೆನ್,7,digit 	ಗಂಟೆ,:,time 	
332-ಟೂ,2,digit 	ಐವತ್ತೆರಡು,52,digit 	
333-ನಾಲ್ಕು,4,digit 	ಐವತ್ತೊಂಬತ್ತು,59,digit 	
334-ಹನ್ನೊಂದು,11,digit 	ಗಂಟೆ,:,time 	
335-ಫೈವ್,5,digit 	ಅವರ್,:,time 	
336-ನೈನ್,9,digit 	ಗಂಟೆ,:,time 	ಒಂದು,1,digit 	ನಿಮಿಷ,,time 	
337-ತ್ರೀ,3,digit 	ಗಂಟೆ,:,time 	ಐವತ್ತಮೂರು,53,digit 	ಮಿನಿಟ್ಸ್,,time 	
338-ತ್ರೀ,3,digit 	ಅವರ್,:,time 	ಮೂವತ್ತೊಂಬತ್ತು,39,digit 	ನಿಮಿಷ,,time 	
339-ಒಂಬತ್ತು,9,digit 	ಗಂಟೆ,:,time 	ಇಪ್ಪತ್ತೊಂದು,21,digit 	ನಿಮಿಷ,,time 	
340-ನಾಲ್ಕು,4,digit 	ಗಂಟೆ,:,time 	ನಲವತ್ತೊಂಬತ್ತು,49,digit 	ನಿಮಿಷ,,time 	
341-ಒಂಬತ್ತು,9,digit 	ಅವರ್,:,time 	
342-ನೈನ್,9,digit 	ಅವರ್,:,time 	ಮೂವತ್ತೆರಡು,32,digit 	ಮಿನಿಟ್ಸ್,,time 	
343-ಟೂ,2,digit 	ಇಪ್ಪತ್ತಾರು,26,digit 	
344-ಹತ್ತು,10,digit 	ಹದಿಮೂರು,13,digit 	
345-ಏಟ್,8,digit 	ಗಂಟೆ,:,time 	
346-ಲೆವೆನ್,11,digit 	ಗಂಟೆ,:,time 	ಐವತ್ತೊಂದು,51,digit 	ಮಿನಿಟ್ಸ್,,time 	
347-ಎರಡು,2,digit 	ನಲವತ್ತೇಳು,47,digit 	
348-ಎರಡು,2,digit 	ಗಂಟೆ,:,time 	ನಲವತ್ತಾರು,46,digit 	ನಿಮಿಷ,,time 	
349-ಹತ್ತು,10,digit 	ಗಂಟೆ,:,time 	
350-ಆರು,6,digit 	ಅವರ್,:,time 	
351-ತ್ರೀ,3,digit 	ಗಂಟೆ,:,time 	ನಲವತ್ತೆರಡು,42,digit 	ಮಿನಿಟ್ಸ್,,time 	
352-ಎರಡು,2,digit 	ಐವತ್ತೊಂದು,51,digit 	
353-ಟೆನ್,10,digit 	ಗಂಟೆ,:,time 	ಹನ್ನೆರಡು,12,digit 	ನಿಮಿಷ,,time 	
354-ಮೂರು,3,digit 	ಗಂಟೆ,:,time 	
355-ಫೋರ್,4,digit 	ಗಂಟೆ,:,time 	
356-ಎರಡು,2,digit 	ಗಂಟೆ,:,time 	
357-ಒಂದು,1,digit 	ಮೂವತ್ತಮೂರು,33,digit 	
358-ನೈನ್,9,digit 	ಹನ್ನೊಂದು,11,digit 	
359-ಆರು,6,digit 	ಗಂಟೆ,:,time 	ಐವತ್ತೈದು,55,digit 	ನಿಮಿಷ,,time 	
360-ಎಂಟು,8,digit 	ಆರು,6,digit 	
361-ನಾಲ್ಕು,4,digit 	ಗಂಟೆ,:,time 	ನಲವತ್ತೊಂಬತ್ತು,49,digit 	ನಿಮಿಷ,,time 	
362-ಟೆನ್,10,digit 	ಗಂಟೆ,:,time 	
363-ಒನ್,1,digit 	ಗಂಟೆ,:,time 	ಮೂವತ್ತೊಂದು,31,digit 	ನಿಮಿಷ,,time 	
364-ಹನ್ನೊಂದು,11,digit 	ಗಂಟೆ,:,time 	
365-ನೈನ್,9,digit 	ಗಂಟೆ,:,time 	ಹದಿನೆಂಟು,18,digit 	ಮಿನಿಟ್ಸ್,,time 	
366-ಫೈವ್,5,digit 	ಅವರ್,:,time 	
367-ಒಂಬತ್ತು,9,digit 	ಅವರ್,:,time 	ಹನ್ನೊಂದು,11,digit 	ನಿಮಿಷ,,time 	
368-ಎರಡು,2,digit 	ಅವರ್,:,time 	ಐವತ್ತೆಂಟು,58,digit 	ನಿಮಿಷ,,time 	
369-ಒನ್,1,digit 	ಗಂಟೆ,:,time 	ಒಂಬತ್ತು,9,digit 	ಮಿನಿಟ್ಸ್,,time 	
370-ಎಂಟು,8,digit 	ಗಂಟೆ,:,time 	
371-ಏಟ್,8,digit 	ಗಂಟೆ,:,time 	
372-ತ್ರೀ,3,digit 	ನಲವತ್ತೊಂದು,41,digit 	
373-ಟವೆಲ್,12,digit 	ಗಂಟೆ,:,time 	
374-ಟೆನ್,10,digit 	ಗಂಟೆ,:,time 	ನಲವತ್ತೆಂಟು,48,digit 	ನಿಮಿಷ,,time 	
375-ಹತ್ತು,10,digit 	ಗಂಟೆ,:,time 	
376-ಒಂದು,1,digit 	ಅವರ್,:,time 	
377-ಮೂರು,3,digit 	ಗಂಟೆ,:,time 	
378-ಹನ್ನೊಂದು,11,digit 	ಒಂಬತ್ತು,9,digit 	
379-ನೈನ್,9,digit 	ಗಂಟೆ,:,time 	
380-ನಾಲ್ಕು,4,digit 	ಗಂಟೆ,:,time 	
381-ಆರು,6,digit 	ಮೂವತ್ತೈದು,35,digit 	
382-ಎರಡು,2,digit 	ಗಂಟೆ,:,time 	
383-ನೈನ್,9,digit 	ಅವರ್,:,time 	ಕಾಲು,15,digit 	ಮಿನಿಟ್ಸ್,,time 	
384-ಟೆನ್,10,digit 	ಗಂಟೆ,:,time 	
385-ಏಳು,7,digit 	ಗಂಟೆ,:,time 	ಇಪ್ಪತ್ತೆರಡು,22,digit 	ನಿಮಿಷ,,time 	
386-ನೈನ್,9,digit 	ಐವತ್ತೆರಡು,52,digit 	
387-ಟವೆಲ್,12,digit 	ಐವತ್ತೆರಡು,52,digit 	
388-ಟವೆಲ್,12,digit 	ಗಂಟೆ,:,time 	ಹನ್ನೆರಡು,12,digit 	ಮಿನಿಟ್ಸ್,,time 	
389-ಒನ್,1,digit 	ಅವರ್,:,time 	ಮೂವತ್ತೊಂದು,31,digit 	ನಿಮಿಷ,,time 	
390-ಫೈವ್,5,digit 	ಗಂಟೆ,:,time 	
391-ಟವೆಲ್,12,digit 	ಹದಿನಾರು,16,digit 	
392-ನಾಲ್ಕು,4,digit 	ಗಂಟೆ,:,time 	ಮೂವತ್ತೆರಡು,32,digit 	ಮಿನಿಟ್ಸ್,,time 	
393-ಫೋರ್,4,digit 	ಗಂಟೆ,:,time 	ಎಂಟು,8,digit 	ನಿಮಿಷ,,time 	
394-ಒಂದು,1,digit 	ಗಂಟೆ,:,time 	ಐವತ್ತೊಂದು,51,digit 	ಮಿನಿಟ್ಸ್,,time 	
395-ಆರು,6,digit 	ಮೂವತ್ತಾರು,36,digit 	
396-ನಾಲ್ಕು,4,digit 	ಅವರ್,:,time 	ಒಂಬತ್ತು,9,digit 	ಮಿನಿಟ್ಸ್,,time 	
397-ಒಂದು,1,digit 	ಗಂಟೆ,:,time 	ನಲವತ್ತೊಂದು,41,digit 	ಮಿನಿಟ್ಸ್,,time 	
398-ಟವೆಲ್,12,digit 	ಗಂಟೆ,:,time 	
399-ಸೆವೆನ್,7,digit 	ಗಂಟೆ,:,time 	
400-ಫೋರ್,4,digit 	ಗಂಟೆ,:,time 	ಐವತ್ತೊಂದು,51,digit 	ನಿಮಿಷ,,time 	
401-ಏಟ್,8,digit 	ಹದಿಮೂರು,13,digit 	
402-ನಾಲ್ಕು,4,digit 	ಗಂಟೆ,:,time 	ಐವತ್ನಾಲ್ಕು,54,digit 	ನಿಮಿಷ,,time 	
403-ಸೆವೆನ್,7,digit 	ಎರಡು,2,digit 	
404-ಫೈವ್,5,digit 	ನಲವತ್ತನಾಲ್ಕು,44,digit 	
405-ನಾಲ್ಕು,4,digit 	ಅವರ್,:,time 	
406-ಟೆನ್,10,digit 	ಗಂಟೆ,:,time 	ಏಳು,7,digit 	ಮಿನಿಟ್ಸ್,,time 	
407-ಲೆವೆನ್,11,digit 	ಗಂಟೆ,:,time 	
408-ಟೆನ್,10,digit 	ಗಂಟೆ,:,time 	
409-ಹನ್ನೆರಡು,12,digit 	ಇಪ್ಪತ್ತೆರಡು,22,digit 	
410-ನೈನ್,9,digit 	ಮುಕ್ಕಾಲು,45,digit 	
411-ಟೆನ್,10,digit 	ಐವತ್ತೊಂದು,51,digit 	
412-ತ್ರೀ,3,digit 	ಗಂಟೆ,:,time 	
413-ಸಿಕ್ಸ್,6,digit 	ಅವರ್,:,time 	
414-ಹತ್ತು,10,digit 	ಗಂಟೆ,:,time 	ಒಂಬತ್ತು,9,digit 	ನಿಮಿಷ,,time 	
415-ನಾಲ್ಕು,4,digit 	ನಲವತ್ತೇಳು,47,digit 	
416-ತ್ರೀ,3,digit 	ಟೆನ್,10,digit 	
417-ಹನ್ನೊಂದು,11,digit 	ಐವತ್ತೆಂಟು,58,digit 	
418-ಮೂರು,3,digit 	ಹತ್ತೊಂಬತ್ತು,19,digit 	
419-ಎಂಟು,8,digit 	ಅವರ್,:,time 	ನಲವತ್ಮೂರು,43,digit 	ಮಿನಿಟ್ಸ್,,time 	
420-ಹತ್ತು,10,digit 	ಗಂಟೆ,:,time 	ನಲವತ್ತೆರಡು,42,digit 	ಮಿನಿಟ್ಸ್,,time 	
421-ಟವೆಲ್,12,digit 	ಅವರ್,:,time 	ಹದಿನೆಂಟು,18,digit 	ಮಿನಿಟ್ಸ್,,time 	
422-ಲೆವೆನ್,11,digit 	ನಲವತ್ತೊಂದು,41,digit 	
423-ಆರು,6,digit 	ಗಂಟೆ,:,time 	
424-ಸೆವೆನ್,7,digit 	ಇಪ್ಪತ್ತೆಂಟು,28,digit 	
425-ನಾಲ್ಕು,4,digit 	ಅವರ್,:,time 	
426-ಟೆನ್,10,digit 	ಅವರ್,:,time 	
427-ಒಂದು,1,digit 	ಗಂಟೆ,:,time 	ಐವತ್ತೊಂಬತ್ತು,59,digit 	ಮಿನಿಟ್ಸ್,,time 	
428-ನೈನ್,9,digit 	ಏಳು,7,digit 	
429-ಹತ್ತು,10,digit 	ಅವರ್,:,time 	
430-ಹತ್ತು,10,digit 	ಗಂಟೆ,:,time 	ಹನ್ನೊಂದು,11,digit 	ನಿಮಿಷ,,time 	
431-ಟವೆಲ್,12,digit 	ಐವತ್ತೇಳು,57,digit 	
432-ಸಿಕ್ಸ್,6,digit 	ಅವರ್,:,time 	
433-ನಾಲ್ಕು,4,digit 	ಗಂಟೆ,:,time 	
434-ತ್ರೀ,3,digit 	ಐವತ್ತೊಂದು,51,digit 	
435-ಒಂದು,1,digit 	ಗಂಟೆ,:,time 	ಇಪ್ಪತ್ತು,20,digit 	ಮಿನಿಟ್ಸ್,,time 	
436-ಫೈವ್,5,digit 	ಗಂಟೆ,:,time 	ಹತ್ತು,10,digit 	ಮಿನಿಟ್ಸ್,,time 	
437-ಟೂ,2,digit 	ಇಪ್ಪತ್ತೊಂದು,21,digit 	
438-ಏಳು,7,digit 	ಅವರ್,:,time 	ನಲವತ್ತೈದು,45,digit 	ಮಿನಿಟ್ಸ್,,time 	
439-ಒಂಬತ್ತು,9,digit 	ಗಂಟೆ,:,time 	ಎಂಟು,8,digit 	ಮಿನಿಟ್ಸ್,,time 	
440-ಫೈವ್,5,digit 	ಗಂಟೆ,:,time 	ಎಂಟು,8,digit 	ಮಿನಿಟ್ಸ್,,time 	
441-ಟೆನ್,10,digit 	ಗಂಟೆ,:,time 	
442-ಟೆನ್,10,digit 	ಐವತ್ತು,50,digit 	
443-ಒನ್,1,digit 	ಗಂಟೆ,:,time 	ಐವತ್ತು,50,digit 	ನಿಮಿಷ,,time 	
444-ಟವೆಲ್,12,digit 	ಐವತ್ತೆರಡು,52,digit 	
445-ಸೆವೆನ್,7,digit 	ಗಂಟೆ,:,time 	
446-ಏಳು,7,digit 	ಗಂಟೆ,:,time 	
447-ಒನ್,1,digit 	ಗಂಟೆ,:,time 	ಇಪ್ಪತ್ನಾಕು,24,digit 	ಮಿನಿಟ್ಸ್,,time 	
448-ತ್ರೀ,3,digit 	ಆರು,6,digit 	
449-ಸೆವೆನ್,7,digit 	ಇಪ್ಪತ್ಮೂರು,23,digit 	
450-ತ್ರೀ,3,digit 	ಐವತ್ತೈದು,55,digit 	
451-ಸೆವೆನ್,7,digit 	ಇಪ್ಪತ್ತೆಂಟು,28,digit 	
452-ಐದು,5,digit 	ಐವತ್ತೊಂಬತ್ತು,59,digit 	
453-ಹನ್ನೊಂದು,11,digit 	ಅವರ್,:,time 	ಹನ್ನೊಂದು,11,digit 	ಮಿನಿಟ್ಸ್,,time 	
454-ಆರು,6,digit 	ಗಂಟೆ,:,time 	
455-ಟವೆಲ್,12,digit 	ಗಂಟೆ,:,time 	
456-ಟೆನ್,10,digit 	ಗಂಟೆ,:,time 	ನಲವತ್ತೊಂಬತ್ತು,49,digit 	ಮಿನಿಟ್ಸ್,,time 	
457-ತ್ರೀ,3,digit 	ಗಂಟೆ,:,time 	
458-ಆರು,6,digit 	ಗಂಟೆ,:,time 	
459-ಸೆವೆನ್,7,digit 	ಗಂಟೆ,:,time 	ಮೂವತ್ತಾರು,36,digit 	ನಿಮಿಷ,,time 	
460-ಒಂದು,1,digit 	ಇಪ್ಪತ್ತೆಂಟು,28,digit 	
461-ಟೆನ್,10,digit 	ಗಂಟೆ,:,time 	ನಲವತ್ತೊಂದು,41,digit 	ಮಿನಿಟ್ಸ್,,time 	
462-ಲೆವೆನ್,11,digit 	ಅವರ್,:,time 	
463-ಎಂಟು,8,digit 	ಗಂಟೆ,:,time 	ಇಪ್ಪತ್ನಾಲ್ಕು,24,digit 	ನಿಮಿಷ,,time 	
464-ಸೆವೆನ್,7,digit 	ಗಂಟೆ,:,time 	ಹದಿನೆಂಟು,18,digit 	ನಿಮಿಷ,,time 	
465-ಫೋರ್,4,digit 	ಗಂಟೆ,:,time 	
466-ಆರು,6,digit 	ಗಂಟೆ,:,time 	ಏಳು,7,digit 	ಮಿನಿಟ್ಸ್,,time 	
467-ಫೋರ್,4,digit 	ನಾಲ್ಕು,4,digit 	
468-ಸಿಕ್ಸ್,6,digit 	ಗಂಟೆ,:,time 	ಇಪ್ಪತ್ತು,20,digit 	ಮಿನಿಟ್ಸ್,,time 	
469-ಎಂಟು,8,digit 	ಗಂಟೆ,:,time 	
470-ನಾಲ್ಕು,4,digit 	ಮೂವತ್ತನಾಲ್ಕು,34,digit 	
471-ತ್ರೀ,3,digit 	ಗಂಟೆ,:,time 	ಐವತ್ತೊಂಬತ್ತು,59,digit 	ನಿಮಿಷ,,time 	
472-ಹನ್ನೆರಡು,12,digit 	ಎಂಟು,8,digit 	
473-ಐದು,5,digit 	ಮೂವತ್ತೊಂದು,31,digit 	
474-ಸಿಕ್ಸ್,6,digit 	ಗಂಟೆ,:,time 	
475-ಒಂಬತ್ತು,9,digit 	ಗಂಟೆ,:,time 	ಮೂವತ್ತೇಳು,37,digit 	ಮಿನಿಟ್ಸ್,,time 	
476-ಒಂಬತ್ತು,9,digit 	ಐವತ್ತೊಂಬತ್ತು,59,digit 	
477-ತ್ರೀ,3,digit 	ಗಂಟೆ,:,time 	
478-ತ್ರೀ,3,digit 	ಗಂಟೆ,:,time 	ಥರ್ಟಿ,30,digit 	ಮಿನಿಟ್ಸ್,,time 	
479-ಟೂ,2,digit 	ಅವರ್,:,time 	
480-ಟೆನ್,10,digit 	ಗಂಟೆ,:,time 	ಇಪ್ಪತ್ತಾರು,26,digit 	ಮಿನಿಟ್ಸ್,,time 	
481-ಟೆನ್,10,digit 	ಅವರ್,:,time 	
482-ಎಂಟು,8,digit 	ಗಂಟೆ,:,time 	ಐವತ್ತು,50,digit 	ಮಿನಿಟ್ಸ್,,time 	
483-ಲೆವೆನ್,11,digit 	ನಲವತ್ತೆಂಟು,48,digit 	
484-ನೈನ್,9,digit 	ಗಂಟೆ,:,time 	
485-ಸೆವೆನ್,7,digit 	ನಲವತ್ತೆಂಟು,48,digit 	
486-ಟವೆಲ್,12,digit 	ಏಳು,7,digit 	
487-ನಾಲ್ಕು,4,digit 	ಗಂಟೆ,:,time 	ಇಪ್ಪತ್ತೆಂಟು,28,digit 	ಮಿನಿಟ್ಸ್,,time 	
488-ಟವೆಲ್,12,digit 	ನಲವತ್ಮೂರು,43,digit 	
489-ಏಟ್,8,digit 	ಗಂಟೆ,:,time 	ಹತ್ತೊಂಬತ್ತು,19,digit 	ನಿಮಿಷ,,time 	
490-ಆರು,6,digit 	ಗಂಟೆ,:,time 	
491-ಹನ್ನೊಂದು,11,digit 	ಗಂಟೆ,:,time 	
492-ನೈನ್,9,digit 	ಗಂಟೆ,:,time 	ಐವತ್ತು,50,digit 	ನಿಮಿಷ,,time 	
493-ಸೆವೆನ್,7,digit 	ಅವರ್,:,time 	
494-ಎಂಟು,8,digit 	ಗಂಟೆ,:,time 	ಮೂವತ್ತನಾಲ್ಕು,34,digit 	ನಿಮಿಷ,,time 	
495-ಫೋರ್,4,digit 	ಗಂಟೆ,:,time 	ಐದು,5,digit 	ನಿಮಿಷ,,time 	
496-ಏಟ್,8,digit 	ಗಂಟೆ,:,time 	ನಾಲ್ಕು,4,digit 	ನಿಮಿಷ,,time 	
497-ಫೈವ್,5,digit 	ಮೂವತ್ತೇಳು,37,digit 	
498-ಟವೆಲ್,12,digit 	ಗಂಟೆ,:,time 	
499-ಏಳು,7,digit 	ಗಂಟೆ,:,time 	ನಲವತ್ತೊಂಬತ್ತು,49,digit 	ನಿಮಿಷ,,time 	
500-ಎರಡು,2,digit 	ಗಂಟೆ,:,time 	ಇಪ್ಪತ್ತೈದು,25,digit 	ನಿಮಿಷ,,time 	
501-ಹತ್ತು,10,digit 	ಅವರ್,:,time 	ನಲವತ್ತಾರು,46,digit 	ನಿಮಿಷ,,time 	
502-ಐದು,5,digit 	ನಲವತ್ತೆಂಟು,48,digit 	
503-ಸೆವೆನ್,7,digit 	ಐವತ್ತೊಂದು,51,digit 	
504-ತ್ರೀ,3,digit 	ಗಂಟೆ,:,time 	
505-ಒಂಬತ್ತು,9,digit 	ಗಂಟೆ,:,time 	
506-ಹತ್ತು,10,digit 	ಅವರ್,:,time 	
507-ಟೆನ್,10,digit 	ಇಪ್ಪತ್ನಾಕು,24,digit 	
508-ಸಿಕ್ಸ್,6,digit 	ಗಂಟೆ,:,time 	
509-ಎರಡು,2,digit 	ನಲವತ್ತೊಂಬತ್ತು,49,digit 	
510-ಐದು,5,digit 	ನಲವತ್ತೆರಡು,42,digit 	
511-ಸೆವೆನ್,7,digit 	ಮೂರು,3,digit 	
512-ಸಿಕ್ಸ್,6,digit 	ಗಂಟೆ,:,time 	ಫಾರ್ಟಿ,40,digit 	ನಿಮಿಷ,,time 	
513-ಲೆವೆನ್,11,digit 	ಗಂಟೆ,:,time 	
514-ಒಂಬತ್ತು,9,digit 	ಗಂಟೆ,:,time 	
515-ಎರಡು,2,digit 	ನಲವತ್ತಾರು,46,digit 	
516-ಐದು,5,digit 	ಅವರ್,:,time 	
517-ತ್ರೀ,3,digit 	ಅವರ್,:,time 	
518-ಟವೆಲ್,12,digit 	ಅವರ್,:,time 	ಆರು,6,digit 	ನಿಮಿಷ,,time 	
519-ಆರು,6,digit 	ಗಂಟೆ,:,time 	
520-ಲೆವೆನ್,11,digit 	ಮೂವತ್ತೆರಡು,32,digit 	
521-ಏಳು,7,digit 	ಅವರ್,:,time 	ನಲವತ್ತೆರಡು,42,digit 	ನಿಮಿಷ,,time 	
522-ತ್ರೀ,3,digit 	ಅವರ್,:,time 	ಇಪ್ಪತ್ತಾರು,26,digit 	ಮಿನಿಟ್ಸ್,,time 	
523-ನಾಲ್ಕು,4,digit 	ಗಂಟೆ,:,time 	
524-ನಾಲ್ಕು,4,digit 	ಅವರ್,:,time 	ಹದಿಮೂರು,13,digit 	ನಿಮಿಷ,,time 	
525-ತ್ರೀ,3,digit 	ಗಂಟೆ,:,time 	
526-ಲೆವೆನ್,11,digit 	ಅವರ್,:,time 	
527-ಒಂಬತ್ತು,9,digit 	ಟ್ವೆಂಟಿ,20,digit 	
528-ಸೆವೆನ್,7,digit 	ಗಂಟೆ,:,time 	
529-ನಾಲ್ಕು,4,digit 	ಗಂಟೆ,:,time 	
530-ಲೆವೆನ್,11,digit 	ಅವರ್,:,time 	ಇಪ್ಪತ್ತೆರಡು,22,digit 	ಮಿನಿಟ್ಸ್,,time 	
531-ಐದು,5,digit 	ಗಂಟೆ,:,time 	
532-ಟೂ,2,digit 	ಫೈವ್,5,digit 	
533-ಹನ್ನೆರಡು,12,digit 	ಗಂಟೆ,:,time 	
534-ಫೋರ್,4,digit 	ಫಾರ್ಟಿ,40,digit 	
535-ಟವೆಲ್,12,digit 	ಅವರ್,:,time 	
536-ಫೋರ್,4,digit 	ಗಂಟೆ,:,time 	ಮೂವತ್ತೈದು,35,digit 	ಮಿನಿಟ್ಸ್,,time 	
537-ಏಳು,7,digit 	ಮೂವತ್ತನಾಲ್ಕು,34,digit 	
538-ಹತ್ತು,10,digit 	ಗಂಟೆ,:,time 	ಏಳು,7,digit 	ಮಿನಿಟ್ಸ್,,time 	
539-ಆರು,6,digit 	ಇಪ್ಪತ್ಮೂರು,23,digit 	
540-ಟೆನ್,10,digit 	ಐವತ್ತೇಳು,57,digit 	
541-ಒಂದು,1,digit 	ಗಂಟೆ,:,time 	
542-ಒನ್,1,digit 	ಗಂಟೆ,:,time 	
543-ಹನ್ನೊಂದು,11,digit 	ನಲವತ್ತೇಳು,47,digit 	
544-ತ್ರೀ,3,digit 	ಅವರ್,:,time 	ಹದಿನೇಳು,17,digit 	ಮಿನಿಟ್ಸ್,,time 	
545-ಒಂಬತ್ತು,9,digit 	ಗಂಟೆ,:,time 	ಮೂವತ್ತೆಂಟು,38,digit 	ನಿಮಿಷ,,time 	
546-ಏಳು,7,digit 	ಐವತ್ತೆಂಟು,58,digit 	
547-ಫೋರ್,4,digit 	ಗಂಟೆ,:,time 	ಮೂವತ್ತೊಂಬತ್ತು,39,digit 	ನಿಮಿಷ,,time 	
548-ಹನ್ನೊಂದು,11,digit 	ಗಂಟೆ,:,time 	
549-ಸಿಕ್ಸ್,6,digit 	ಗಂಟೆ,:,time 	ನಲವತ್ತನಾಲ್ಕು,44,digit 	ಮಿನಿಟ್ಸ್,,time 	
550-ಆರು,6,digit 	ನಲವತ್ತೈದು,45,digit 	
551-ಒನ್,1,digit 	ಗಂಟೆ,:,time 	
552-ನಾಲ್ಕು,4,digit 	ಇಪ್ಪತ್ತೆರಡು,22,digit 	
553-ಹನ್ನೆರಡು,12,digit 	ಗಂಟೆ,:,time 	
554-ಫೋರ್,4,digit 	ಹನ್ನೊಂದು,11,digit 	
555-ಎರಡು,2,digit 	ಅವರ್,:,time 	ಮೂವತ್ತೆರಡು,32,digit 	ನಿಮಿಷ,,time 	
556-ಐದು,5,digit 	ಗಂಟೆ,:,time 	
557-ಆರು,6,digit 	ಗಂಟೆ,:,time 	
558-ಲೆವೆನ್,11,digit 	ಐವತ್ತಾರು,56,digit 	
559-ಎಂಟು,8,digit 	ಗಂಟೆ,:,time 	ಹದಿನಾರು,16,digit 	ಮಿನಿಟ್ಸ್,,time 	
560-ಟೆನ್,10,digit 	ಗಂಟೆ,:,time 	ಐವತ್ತೇಳು,57,digit 	ಮಿನಿಟ್ಸ್,,time 	
561-ಹತ್ತು,10,digit 	ಎರಡು,2,digit 	
562-ನೈನ್,9,digit 	ಇಪ್ಪತ್ತಾರು,26,digit 	
563-ಹನ್ನೆರಡು,12,digit 	ಗಂಟೆ,:,time 	
564-ಮೂರು,3,digit 	ಗಂಟೆ,:,time 	
565-ಏಳು,7,digit 	ಗಂಟೆ,:,time 	
566-ಒನ್,1,digit 	ಗಂಟೆ,:,time 	
567-ಫೈವ್,5,digit 	ಹದಿಮೂರು,13,digit 	
568-ಎರಡು,2,digit 	ಹನ್ನೊಂದು,11,digit 	
569-ಒಂದು,1,digit 	ಅವರ್,:,time 	
570-ಫೈವ್,5,digit 	ಗಂಟೆ,:,time 	ಹನ್ನೊಂದು,11,digit 	ನಿಮಿಷ,,time 	
571-ಮೂರು,3,digit 	ಗಂಟೆ,:,time 	ನಲವತ್ತೆಂಟು,48,digit 	ನಿಮಿಷ,,time 	
572-ಹತ್ತು,10,digit 	ಗಂಟೆ,:,time 	ಇಪ್ಪತ್ತು,20,digit 	ಮಿನಿಟ್ಸ್,,time 	
573-ಒಂಬತ್ತು,9,digit 	ಐವತ್ನಾಲ್ಕು,54,digit 	
574-ಎರಡು,2,digit 	ಇಪ್ಪತ್ತು,20,digit 	
575-ಒನ್,1,digit 	ಗಂಟೆ,:,time 	ಮೂವತ್ತೊಂದು,31,digit 	ನಿಮಿಷ,,time 	
576-ಟೆನ್,10,digit 	ಗಂಟೆ,:,time 	ಕಾಲು,15,digit 	ನಿಮಿಷ,,time 	
577-ಟವೆಲ್,12,digit 	ಗಂಟೆ,:,time 	ವರೆ,30,digit 	ನಿಮಿಷ,,time 	
578-ತ್ರೀ,3,digit 	ನಲವತ್ತೆರಡು,42,digit 	
579-ಸಿಕ್ಸ್,6,digit 	ಐವತ್ತೊಂದು,51,digit 	
580-ಟೆನ್,10,digit 	ಗಂಟೆ,:,time 	ಫೈವ್,5,digit 	ನಿಮಿಷ,,time 	
581-ಏಟ್,8,digit 	ಅವರ್,:,time 	ಮೂವತ್ತಮೂರು,33,digit 	ನಿಮಿಷ,,time 	
582-ಫೈವ್,5,digit 	ಗಂಟೆ,:,time 	ಟೆನ್,10,digit 	ಮಿನಿಟ್ಸ್,,time 	
583-ಹನ್ನೆರಡು,12,digit 	ಗಂಟೆ,:,time 	ಇಪ್ಪತ್ತೊಂಬತ್ತು,29,digit 	ನಿಮಿಷ,,time 	
584-ಫೈವ್,5,digit 	ನಲವತ್ತೆಂಟು,48,digit 	
585-ಸೆವೆನ್,7,digit 	ಗಂಟೆ,:,time 	ನಲವತ್ತೇಳು,47,digit 	ಮಿನಿಟ್ಸ್,,time 	
586-ಮೂರು,3,digit 	ಗಂಟೆ,:,time 	ಮೂವತ್ತನಾಲ್ಕು,34,digit 	ನಿಮಿಷ,,time 	
587-ನಾಲ್ಕು,4,digit 	ಐದು,5,digit 	
588-ಫೋರ್,4,digit 	ಹದಿಮೂರು,13,digit 	
589-ಟೂ,2,digit 	ಗಂಟೆ,:,time 	ನಲವತ್ತನಾಲ್ಕು,44,digit 	ಮಿನಿಟ್ಸ್,,time 	
590-ಫೈವ್,5,digit 	ಗಂಟೆ,:,time 	ಮೂವತ್ತಮೂರು,33,digit 	ನಿಮಿಷ,,time 	
591-ಟೂ,2,digit 	ಗಂಟೆ,:,time 	
592-ಟೂ,2,digit 	ಹದಿನಾರು,16,digit 	
593-ಒಂದು,1,digit 	ಗಂಟೆ,:,time 	ನಲವತ್ತೆರಡು,42,digit 	ನಿಮಿಷ,,time 	
594-ಹತ್ತು,10,digit 	ಗಂಟೆ,:,time 	
595-ನಾಲ್ಕು,4,digit 	ಗಂಟೆ,:,time 	ಹದಿನೇಳು,17,digit 	ನಿಮಿಷ,,time 	
596-ಒನ್,1,digit 	ನಲವತ್ತೆರಡು,42,digit 	
597-ಒಂದು,1,digit 	ಗಂಟೆ,:,time 	
598-ಎಂಟು,8,digit 	ಗಂಟೆ,:,time 	ಫಿಫ್ಟೀನ್,15,digit 	ಮಿನಿಟ್ಸ್,,time 	
599-ಸಿಕ್ಸ್,6,digit 	ಮೂವತ್ತೊಂದು,31,digit 	
600-ಸೆವೆನ್,7,digit 	ಟ್ವೆಂಟಿ,20,digit 	
601-ನಾಲ್ಕು,4,digit 	ಗಂಟೆ,:,time 	ಆರು,6,digit 	ನಿಮಿಷ,,time 	
602-ಏಳು,7,digit 	ಗಂಟೆ,:,time 	
603-ಫೋರ್,4,digit 	ಗಂಟೆ,:,time 	ಹದಿನೆಂಟು,18,digit 	ಮಿನಿಟ್ಸ್,,time 	
604-ಎಂಟು,8,digit 	ನಾಲ್ಕು,4,digit 	
605-ಟೂ,2,digit 	ಗಂಟೆ,:,time 	
606-ಲೆವೆನ್,11,digit 	ಟೆನ್,10,digit 	
607-ಟವೆಲ್,12,digit 	ಗಂಟೆ,:,time 	
608-ಹನ್ನೊಂದು,11,digit 	ಇಪ್ಪತ್ತೇಳು,27,digit 	
609-ಒನ್,1,digit 	ಗಂಟೆ,:,time 	
610-ನೈನ್,9,digit 	ಅವರ್,:,time 	
611-ಫೈವ್,5,digit 	ಗಂಟೆ,:,time 	ಇಪ್ಪತ್ತೆಂಟು,28,digit 	ಮಿನಿಟ್ಸ್,,time 	
612-ಟೂ,2,digit 	ಗಂಟೆ,:,time 	ಆರು,6,digit 	ನಿಮಿಷ,,time 	
613-ಆರು,6,digit 	ಗಂಟೆ,:,time 	ಒಂಬತ್ತು,9,digit 	ಮಿನಿಟ್ಸ್,,time 	
614-ನಾಲ್ಕು,4,digit 	ಗಂಟೆ,:,time 	
615-ನೈನ್,9,digit 	ಗಂಟೆ,:,time 	
616-ಫೈವ್,5,digit 	ನಲವತ್ತೆಂಟು,48,digit 	
617-ಟೂ,2,digit 	ಗಂಟೆ,:,time 	ಐವತ್ತೈದು,55,digit 	ಮಿನಿಟ್ಸ್,,time 	
618-ಒಂಬತ್ತು,9,digit 	ಗಂಟೆ,:,time 	
619-ತ್ರೀ,3,digit 	ಗಂಟೆ,:,time 	ವರೆ,30,digit 	ನಿಮಿಷ,,time 	
620-ಫೋರ್,4,digit 	ನಾಲ್ಕು,4,digit 	
621-ಎಂಟು,8,digit 	ಗಂಟೆ,:,time 	ಐವತ್ತೈದು,55,digit 	ಮಿನಿಟ್ಸ್,,time 	
622-ಏಟ್,8,digit 	ಗಂಟೆ,:,time 	ಇಪ್ಪತ್ತಾರು,26,digit 	ಮಿನಿಟ್ಸ್,,time 	
623-ಲೆವೆನ್,11,digit 	ಹತ್ತೊಂಬತ್ತು,19,digit 	
624-ಲೆವೆನ್,11,digit 	ಗಂಟೆ,:,time 	ಆರು,6,digit 	ಮಿನಿಟ್ಸ್,,time 	
625-ತ್ರೀ,3,digit 	ನಲವತ್ತೇಳು,47,digit 	
626-ಟವೆಲ್,12,digit 	ಗಂಟೆ,:,time 	ಹದಿನೆಂಟು,18,digit 	ಮಿನಿಟ್ಸ್,,time 	
627-ನಾಲ್ಕು,4,digit 	ಗಂಟೆ,:,time 	ಐವತ್ತೊಂಬತ್ತು,59,digit 	ಮಿನಿಟ್ಸ್,,time 	
628-ಸಿಕ್ಸ್,6,digit 	ಗಂಟೆ,:,time 	ಒಂಬತ್ತು,9,digit 	ನಿಮಿಷ,,time 	
629-ತ್ರೀ,3,digit 	ಅವರ್,:,time 	
630-ಹತ್ತು,10,digit 	ಗಂಟೆ,:,time 	ಇಪ್ಪತ್ತು,20,digit 	ಮಿನಿಟ್ಸ್,,time 	
631-ಆರು,6,digit 	ಅವರ್,:,time 	ಆರು,6,digit 	ನಿಮಿಷ,,time 	
632-ಆರು,6,digit 	ಹನ್ನೆರಡು,12,digit 	
633-ಸಿಕ್ಸ್,6,digit 	ಗಂಟೆ,:,time 	
634-ಏಟ್,8,digit 	ಗಂಟೆ,:,time 	
635-ಫೋರ್,4,digit 	ಗಂಟೆ,:,time 	
636-ಸೆವೆನ್,7,digit 	ಗಂಟೆ,:,time 	ಹತ್ತೊಂಬತ್ತು,19,digit 	ಮಿನಿಟ್ಸ್,,time 	
637-ಒಂಬತ್ತು,9,digit 	ಗಂಟೆ,:,time 	ನಲವತ್ಮೂರು,43,digit 	ನಿಮಿಷ,,time 	
638-ಏಳು,7,digit 	ಗಂಟೆ,:,time 	
639-ಆರು,6,digit 	ನಲವತ್ತೊಂದು,41,digit 	
640-ಎರಡು,2,digit 	ಟೆನ್,10,digit 	
641-ಹನ್ನೊಂದು,11,digit 	ಅವರ್,:,time 	
642-ಟೂ,2,digit 	ಒಂದು,1,digit 	
643-ಸೆವೆನ್,7,digit 	ಮೂವತ್ತೊಂದು,31,digit 	
644-ಒಂಬತ್ತು,9,digit 	ಗಂಟೆ,:,time 	
645-ಹನ್ನೆರಡು,12,digit 	ಗಂಟೆ,:,time 	
646-ಮೂರು,3,digit 	ಗಂಟೆ,:,time 	
647-ಏಟ್,8,digit 	ಗಂಟೆ,:,time 	ಮೂವತ್ತೊಂದು,31,digit 	ನಿಮಿಷ,,time 	
648-ಏಟ್,8,digit 	ಗಂಟೆ,:,time 	
649-ಏಳು,7,digit 	ಅವರ್,:,time 	
650-ಟವೆಲ್,12,digit 	ಗಂಟೆ,:,time 	ಹನ್ನೊಂದು,11,digit 	ನಿಮಿಷ,,time 	
651-ಟೆನ್,10,digit 	ಗಂಟೆ,:,time 	
652-ಏಟ್,8,digit 	ಇಪ್ಪತ್ನಾಲ್ಕು,24,digit 	
653-ಟವೆಲ್,12,digit 	ಗಂಟೆ,:,time 	
654-ಒನ್,1,digit 	ಐದು,5,digit 	
655-ಒಂದು,1,digit 	ಗಂಟೆ,:,time 	ಇಪ್ಪತ್ತೊಂದು,21,digit 	ನಿಮಿಷ,,time 	
656-ಎರಡು,2,digit 	ಗಂಟೆ,:,time 	ಮೂವತ್ತೊಂದು,31,digit 	ನಿಮಿಷ,,time 	
657-ಏಟ್,8,digit 	ಗಂಟೆ,:,time 	
658-ಎಂಟು,8,digit 	ಗಂಟೆ,:,time 	ಐವತ್ತು,50,digit 	ಮಿನಿಟ್ಸ್,,time 	
659-ಸಿಕ್ಸ್,6,digit 	ಗಂಟೆ,:,time 	ನಾಲ್ಕು,4,digit 	ನಿಮಿಷ,,time 	
660-ನಾಲ್ಕು,4,digit 	ಗಂಟೆ,:,time 	
661-ಟೂ,2,digit 	ಗಂಟೆ,:,time 	
662-ಒನ್,1,digit 	ಗಂಟೆ,:,time 	
663-ಫೋರ್,4,digit 	ಗಂಟೆ,:,time 	ಇಪ್ಪತ್ತಾರು,26,digit 	ನಿಮಿಷ,,time 	
664-ಒಂದು,1,digit 	ಗಂಟೆ,:,time 	
665-ಐದು,5,digit 	ಗಂಟೆ,:,time 	
666-ಹನ್ನೆರಡು,12,digit 	ಗಂಟೆ,:,time 	
667-ಹನ್ನೆರಡು,12,digit 	ಗಂಟೆ,:,time 	ಹನ್ನೊಂದು,11,digit 	ಮಿನಿಟ್ಸ್,,time 	
668-ಫೋರ್,4,digit 	ಎರಡು,2,digit 	
669-ತ್ರೀ,3,digit 	ಗಂಟೆ,:,time 	ಐವತ್ತೈದು,55,digit 	ಮಿನಿಟ್ಸ್,,time 	
670-ಲೆವೆನ್,11,digit 	ಗಂಟೆ,:,time 	
671-ಹನ್ನೊಂದು,11,digit 	ಅವರ್,:,time 	ಐವತ್ತೈದು,55,digit 	ಮಿನಿಟ್ಸ್,,time 	
672-ಸೆವೆನ್,7,digit 	ಅವರ್,:,time 	ಐವತ್ತೊಂದು,51,digit 	ನಿಮಿಷ,,time 	
673-ಏಳು,7,digit 	ಐವತ್ನಾಲ್ಕು,54,digit 	
674-ಹತ್ತು,10,digit 	ಅವರ್,:,time 	ಒಂದು,1,digit 	ಮಿನಿಟ್ಸ್,,time 	
675-ಮೂರು,3,digit 	ಗಂಟೆ,:,time 	ಇಪ್ಪತ್ತೊಂದು,21,digit 	ಮಿನಿಟ್ಸ್,,time 	
676-ಎಂಟು,8,digit 	ಐವತ್ತೊಂದು,51,digit 	
677-ನೈನ್,9,digit 	ಇಪ್ಪತ್ತೊಂದು,21,digit 	
678-ಟವೆಲ್,12,digit 	ಗಂಟೆ,:,time 	
679-ಹನ್ನೆರಡು,12,digit 	ಗಂಟೆ,:,time 	ಐವತ್ನಾಲ್ಕು,54,digit 	ನಿಮಿಷ,,time 	
680-ಹನ್ನೊಂದು,11,digit 	ಇಪ್ಪತ್ತೊಂಬತ್ತು,29,digit 	
681-ಒನ್,1,digit 	ಗಂಟೆ,:,time 	
682-ಹನ್ನೊಂದು,11,digit 	ಗಂಟೆ,:,time 	
683-ಸಿಕ್ಸ್,6,digit 	ಅವರ್,:,time 	ಐವತ್ತು,50,digit 	ಮಿನಿಟ್ಸ್,,time 	
684-ಹನ್ನೆರಡು,12,digit 	ಗಂಟೆ,:,time 	
685-ಹತ್ತು,10,digit 	ಗಂಟೆ,:,time 	ಎಂಟು,8,digit 	ನಿಮಿಷ,,time 	
686-ಸಿಕ್ಸ್,6,digit 	ಗಂಟೆ,:,time 	
687-ಒಂಬತ್ತು,9,digit 	ಗಂಟೆ,:,time 	ವರೆ,30,digit 	ಮಿನಿಟ್ಸ್,,time 	
688-ಟೂ,2,digit 	ಗಂಟೆ,:,time 	ಹದಿನೆಂಟು,18,digit 	ಮಿನಿಟ್ಸ್,,time 	
689-ಸಿಕ್ಸ್,6,digit 	ಏಳು,7,digit 	
690-ಐದು,5,digit 	ಮೂವತ್ತಮೂರು,33,digit 	
691-ಸಿಕ್ಸ್,6,digit 	ಮೂವತ್ತನಾಲ್ಕು,34,digit 	
692-ಫೈವ್,5,digit 	ಹನ್ನೊಂದು,11,digit 	
693-ಏಳು,7,digit 	ಗಂಟೆ,:,time 	
694-ತ್ರೀ,3,digit 	ಗಂಟೆ,:,time 	ಐವತ್ತಮೂರು,53,digit 	ಮಿನಿಟ್ಸ್,,time 	
695-ಟವೆಲ್,12,digit 	ಗಂಟೆ,:,time 	ನಲವತ್ತೊಂಬತ್ತು,49,digit 	ಮಿನಿಟ್ಸ್,,time 	
696-ಸಿಕ್ಸ್,6,digit 	ಗಂಟೆ,:,time 	
697-ಟೆನ್,10,digit 	ಇಪ್ಪತ್ತೆಂಟು,28,digit 	
698-ಹನ್ನೊಂದು,11,digit 	ಅವರ್,:,time 	
699-ಏಳು,7,digit 	ಇಪ್ಪತ್ತೈದು,25,digit 	
700-ಒಂಬತ್ತು,9,digit 	ಗಂಟೆ,:,time 	
701-ಐದು,5,digit 	ನಲವತ್ತನಾಲ್ಕು,44,digit 	
702-ಒಂದು,1,digit 	ಗಂಟೆ,:,time 	
703-ಸೆವೆನ್,7,digit 	ಗಂಟೆ,:,time 	ನಾಲ್ಕು,4,digit 	ನಿಮಿಷ,,time 	
704-ಎಂಟು,8,digit 	ಮೂವತ್ತೈದು,35,digit 	
705-ಆರು,6,digit 	ನಲವತ್ತೊಂಬತ್ತು,49,digit 	
706-ತ್ರೀ,3,digit 	ಒಂಬತ್ತು,9,digit 	
707-ಹನ್ನೆರಡು,12,digit 	ಗಂಟೆ,:,time 	ಮೂವತ್ತಮೂರು,33,digit 	ನಿಮಿಷ,,time 	
708-ಒಂಬತ್ತು,9,digit 	ಗಂಟೆ,:,time 	ಇಪ್ಪತ್ತೊಂದು,21,digit 	ಮಿನಿಟ್ಸ್,,time 	
709-ಫೈವ್,5,digit 	ಅವರ್,:,time 	
710-ಒಂದು,1,digit 	ಗಂಟೆ,:,time 	
711-ಒನ್,1,digit 	ಐವತ್ತೇಳು,57,digit 	
712-ಟವೆಲ್,12,digit 	ಗಂಟೆ,:,time 	
713-ಹನ್ನೊಂದು,11,digit 	ಮೂವತ್ತೈದು,35,digit 	
714-ಹನ್ನೆರಡು,12,digit 	ಇಪ್ಪತ್ತೇಳು,27,digit 	
715-ಸೆವೆನ್,7,digit 	ಮುಕಾಲು,45,digit 	
716-ಒನ್,1,digit 	ಗಂಟೆ,:,time 	ನಲವತ್ತೊಂದು,41,digit 	ನಿಮಿಷ,,time 	
717-ಲೆವೆನ್,11,digit 	ಅವರ್,:,time 	
718-ಮೂರು,3,digit 	ಅವರ್,:,time 	
719-ನೈನ್,9,digit 	ಹದಿನೇಳು,17,digit 	
720-ನಾಲ್ಕು,4,digit 	ಗಂಟೆ,:,time 	
721-ಆರು,6,digit 	ಮೂವತ್ತಾರು,36,digit 	
722-ಏಟ್,8,digit 	ಒಂದು,1,digit 	
723-ಮೂರು,3,digit 	ಅವರ್,:,time 	ಫೈವ್,5,digit 	ನಿಮಿಷ,,time 	
724-ಮೂರು,3,digit 	ಗಂಟೆ,:,time 	ಇಪ್ಪತ್ತೆಂಟು,28,digit 	ಮಿನಿಟ್ಸ್,,time 	
725-ಒಂದು,1,digit 	ಗಂಟೆ,:,time 	
726-ಫೈವ್,5,digit 	ಗಂಟೆ,:,time 	ಇಪ್ಪತ್ತೇಳು,27,digit 	ನಿಮಿಷ,,time 	
727-ನಾಲ್ಕು,4,digit 	ಗಂಟೆ,:,time 	ಫಾರ್ಟೀಫೈವ್,45,digit 	ನಿಮಿಷ,,time 	
728-ಸೆವೆನ್,7,digit 	ಅವರ್,:,time 	ನಲವತ್ತೊಂಬತ್ತು,49,digit 	ಮಿನಿಟ್ಸ್,,time 	
729-ಏಳು,7,digit 	ಗಂಟೆ,:,time 	
730-ಹನ್ನೊಂದು,11,digit 	ಮೂವತ್ತೆರಡು,32,digit 	
731-ಒನ್,1,digit 	ವರೆ,30,digit 	
732-ನಾಲ್ಕು,4,digit 	ಗಂಟೆ,:,time 	
733-ಮೂರು,3,digit 	ಗಂಟೆ,:,time 	
734-ಟೆನ್,10,digit 	ಗಂಟೆ,:,time 	
735-ಒನ್,1,digit 	ಗಂಟೆ,:,time 	ಒಂಬತ್ತು,9,digit 	ನಿಮಿಷ,,time 	
736-ನೈನ್,9,digit 	ಗಂಟೆ,:,time 	ಹದಿನೆಂಟು,18,digit 	ನಿಮಿಷ,,time 	
737-ಟೆನ್,10,digit 	ಇಪ್ಪತ್ತೇಳು,27,digit 	
738-ಹನ್ನೆರಡು,12,digit 	ನಲವತ್ತು,40,digit 	
739-ಒನ್,1,digit 	ಇಪ್ಪತ್ತಾರು,26,digit 	
740-ಫೈವ್,5,digit 	ಆರು,6,digit 	
741-ನಾಲ್ಕು,4,digit 	ಗಂಟೆ,:,time 	ಎರಡು,2,digit 	ಮಿನಿಟ್ಸ್,,time 	
742-ಟೂ,2,digit 	ಇಪ್ಪತ್ನಾಕು,24,digit 	
743-ಎಂಟು,8,digit 	ಗಂಟೆ,:,time 	
744-ಟೂ,2,digit 	ಗಂಟೆ,:,time 	ಹದಿನಾರು,16,digit 	ನಿಮಿಷ,,time 	
745-ಆರು,6,digit 	ಗಂಟೆ,:,time 	ಹನ್ನೊಂದು,11,digit 	ಮಿನಿಟ್ಸ್,,time 	
746-ಒಂಬತ್ತು,9,digit 	ಗಂಟೆ,:,time 	ಆರು,6,digit 	ನಿಮಿಷ,,time 	
747-ಎಂಟು,8,digit 	ಅವರ್,:,time 	ಒಂದು,1,digit 	ಮಿನಿಟ್ಸ್,,time 	
748-ಏಟ್,8,digit 	ಅವರ್,:,time 	ಮೂವತ್ತೈದು,35,digit 	ಮಿನಿಟ್ಸ್,,time 	
749-ಎರಡು,2,digit 	ವರೆ,30,digit 	
750-ಫೈವ್,5,digit 	ಅವರ್,:,time 	ಮೂವತ್ತೆರಡು,32,digit 	ನಿಮಿಷ,,time 	
751-ಆರು,6,digit 	ಗಂಟೆ,:,time 	ಟೆನ್,10,digit 	ನಿಮಿಷ,,time 	
752-ಐದು,5,digit 	ನಲವತ್ಮೂರು,43,digit 	
753-ಟೂ,2,digit 	ಗಂಟೆ,:,time 	
754-ಎಂಟು,8,digit 	ಗಂಟೆ,:,time 	
755-ಒಂಬತ್ತು,9,digit 	ಮೂರು,3,digit 	
756-ಲೆವೆನ್,11,digit 	ಗಂಟೆ,:,time 	ಫೈವ್,5,digit 	ಮಿನಿಟ್ಸ್,,time 	
757-ಫೈವ್,5,digit 	ಇಪ್ಪತ್ತಾರು,26,digit 	
758-ಸಿಕ್ಸ್,6,digit 	ಐವತ್ತೆಂಟು,58,digit 	
759-ಫೈವ್,5,digit 	ಅವರ್,:,time 	ಐವತ್ತೆಂಟು,58,digit 	ಮಿನಿಟ್ಸ್,,time 	
760-ಟೂ,2,digit 	ಗಂಟೆ,:,time 	
761-ಸಿಕ್ಸ್,6,digit 	ಐವತ್ತೊಂದು,51,digit 	
762-ಹನ್ನೊಂದು,11,digit 	ಗಂಟೆ,:,time 	
763-ಎರಡು,2,digit 	ಮೂವತ್ತಮೂರು,33,digit 	
764-ಫೋರ್,4,digit 	ಗಂಟೆ,:,time 	ಒಂದು,1,digit 	ನಿಮಿಷ,,time 	
765-ಒಂಬತ್ತು,9,digit 	ಗಂಟೆ,:,time 	ಇಪ್ಪತ್ತೆಂಟು,28,digit 	ನಿಮಿಷ,,time 	
766-ಹನ್ನೆರಡು,12,digit 	ಗಂಟೆ,:,time 	ನಲವತ್ತೇಳು,47,digit 	ನಿಮಿಷ,,time 	
767-ಹತ್ತು,10,digit 	ಅವರ್,:,time 	ನಲವತ್ತೈದು,45,digit 	ನಿಮಿಷ,,time 	
768-ಟೆನ್,10,digit 	ಗಂಟೆ,:,time 	
769-ಹನ್ನೆರಡು,12,digit 	ಮೂವತ್ತಾರು,36,digit 	
770-ಫೋರ್,4,digit 	ಐದು,5,digit 	
771-ಫೋರ್,4,digit 	ಗಂಟೆ,:,time 	
772-ಐದು,5,digit 	ಗಂಟೆ,:,time 	
773-ಒನ್,1,digit 	ಗಂಟೆ,:,time 	ಒಂಬತ್ತು,9,digit 	ಮಿನಿಟ್ಸ್,,time 	
774-ಫೋರ್,4,digit 	ಇಪ್ಪತ್ತು,20,digit 	
775-ಸಿಕ್ಸ್,6,digit 	ಗಂಟೆ,:,time 	ಹದಿನೆಂಟು,18,digit 	ಮಿನಿಟ್ಸ್,,time 	
776-ಫೋರ್,4,digit 	ಗಂಟೆ,:,time 	
777-ಏಟ್,8,digit 	ಗಂಟೆ,:,time 	ಹನ್ನೆರಡು,12,digit 	ಮಿನಿಟ್ಸ್,,time 	
778-ನೈನ್,9,digit 	ನಲವತ್ತೈದು,45,digit 	
779-ಫೋರ್,4,digit 	ಅವರ್,:,time 	ಇಪ್ಪತ್ನಾಲ್ಕು,24,digit 	ಮಿನಿಟ್ಸ್,,time 	
780-ಮೂರು,3,digit 	ಗಂಟೆ,:,time 	
781-ಐದು,5,digit 	ಗಂಟೆ,:,time 	ಇಪ್ಪತ್ತೊಂದು,21,digit 	ಮಿನಿಟ್ಸ್,,time 	
782-ಎರಡು,2,digit 	ಹದಿನೆಂಟು,18,digit 	
783-ತ್ರೀ,3,digit 	ನಲವತ್ತೊಂದು,41,digit 	
784-ಒಂಬತ್ತು,9,digit 	ಗಂಟೆ,:,time 	ನಲವತ್ತನಾಲ್ಕು,44,digit 	ನಿಮಿಷ,,time 	
785-ಒಂಬತ್ತು,9,digit 	ಇಪ್ಪತ್ತೈದು,25,digit 	
786-ಆರು,6,digit 	ಗಂಟೆ,:,time 	
787-ಸಿಕ್ಸ್,6,digit 	ಗಂಟೆ,:,time 	ಎರಡು,2,digit 	ನಿಮಿಷ,,time 	
788-ಏಳು,7,digit 	ಐವತ್ತೈದು,55,digit 	
789-ಒನ್,1,digit 	ಗಂಟೆ,:,time 	ನಲವತ್ತೆಂಟು,48,digit 	ಮಿನಿಟ್ಸ್,,time 	
790-ಸಿಕ್ಸ್,6,digit 	ಹದಿನೇಳು,17,digit 	
791-ಹನ್ನೊಂದು,11,digit 	ಹದಿನೇಳು,17,digit 	
792-ತ್ರೀ,3,digit 	ಗಂಟೆ,:,time 	ಮೂವತ್ತಮೂರು,33,digit 	ನಿಮಿಷ,,time 	
793-ಹನ್ನೊಂದು,11,digit 	ಅವರ್,:,time 	
794-ಆರು,6,digit 	ಅವರ್,:,time 	ನಲವತ್ತೆರಡು,42,digit 	ಮಿನಿಟ್ಸ್,,time 	
795-ನಾಲ್ಕು,4,digit 	ಗಂಟೆ,:,time 	
796-ಎಂಟು,8,digit 	ಗಂಟೆ,:,time 	
797-ತ್ರೀ,3,digit 	ಗಂಟೆ,:,time 	ಇಪ್ಪತ್ತು,20,digit 	ಮಿನಿಟ್ಸ್,,time 	
798-ಎಂಟು,8,digit 	ಅವರ್,:,time 	ಒಂಬತ್ತು,9,digit 	ನಿಮಿಷ,,time 	
799-ಲೆವೆನ್,11,digit 	ಗಂಟೆ,:,time 	ಹನ್ನೊಂದು,11,digit 	ನಿಮಿಷ,,time 	
800-ಫೈವ್,5,digit 	ಇಪ್ಪತ್ನಾಕು,24,digit 	
801-ಮೂರು,3,digit 	ಗಂಟೆ,:,time 	ಐವತ್ತಾರು,56,digit 	ಮಿನಿಟ್ಸ್,,time 	
802-ಒಂಬತ್ತು,9,digit 	ಗಂಟೆ,:,time 	ನಲವತ್ತೊಂದು,41,digit 	ಮಿನಿಟ್ಸ್,,time 	
803-ಏಳು,7,digit 	ಗಂಟೆ,:,time 	ನಲವತ್ತೆಂಟು,48,digit 	ನಿಮಿಷ,,time 	
804-ಹನ್ನೆರಡು,12,digit 	ಎರಡು,2,digit 	
805-ಒಂಬತ್ತು,9,digit 	ಗಂಟೆ,:,time 	
806-ಆರು,6,digit 	ಗಂಟೆ,:,time 	
807-ಹನ್ನೆರಡು,12,digit 	ನಲವತ್ತೆಂಟು,48,digit 	
808-ಒನ್,1,digit 	ಗಂಟೆ,:,time 	ನಾಲ್ಕು,4,digit 	ಮಿನಿಟ್ಸ್,,time 	
809-ಮೂರು,3,digit 	ಅವರ್,:,time 	ಹದಿನಾರು,16,digit 	ನಿಮಿಷ,,time 	
810-ಒಂದು,1,digit 	ಮೂವತ್ತೆರಡು,32,digit 	
811-ಫೈವ್,5,digit 	ಗಂಟೆ,:,time 	
812-ಫೋರ್,4,digit 	ಇಪ್ಪತ್ತೊಂದು,21,digit 	
813-ಟೂ,2,digit 	ನಲವತ್ತೆಂಟು,48,digit 	
814-ಏಳು,7,digit 	ಗಂಟೆ,:,time 	
815-ಟವೆಲ್,12,digit 	ಫಾರ್ಟಿ,40,digit 	
816-ಟವೆಲ್,12,digit 	ಅವರ್,:,time 	
817-ತ್ರೀ,3,digit 	ಗಂಟೆ,:,time 	
818-ಐದು,5,digit 	ಅವರ್,:,time 	ಇಪ್ಪತ್ತೇಳು,27,digit 	ನಿಮಿಷ,,time 	
819-ಲೆವೆನ್,11,digit 	ಅವರ್,:,time 	ಇಪ್ಪತ್ತೇಳು,27,digit 	ನಿಮಿಷ,,time 	
820-ಏಳು,7,digit 	ಗಂಟೆ,:,time 	ಮೂವತ್ತೆಂಟು,38,digit 	ನಿಮಿಷ,,time 	
821-ಸೆವೆನ್,7,digit 	ಗಂಟೆ,:,time 	ಐವತ್ತೊಂಬತ್ತು,59,digit 	ಮಿನಿಟ್ಸ್,,time 	
822-ಫೈವ್,5,digit 	ಗಂಟೆ,:,time 	ನಲವತ್ತು,40,digit 	ಮಿನಿಟ್ಸ್,,time 	
823-ಹನ್ನೆರಡು,12,digit 	ಹದಿಮೂರು,13,digit 	
824-ಲೆವೆನ್,11,digit 	ಗಂಟೆ,:,time 	ಫಾರ್ಟಿ,40,digit 	ಮಿನಿಟ್ಸ್,,time 	
825-ಹನ್ನೆರಡು,12,digit 	ಗಂಟೆ,:,time 	ಇಪ್ಪತ್ತೈದು,25,digit 	ನಿಮಿಷ,,time 	
826-ಫೋರ್,4,digit 	ಗಂಟೆ,:,time 	
827-ಏಟ್,8,digit 	ಗಂಟೆ,:,time 	
828-ಏಳು,7,digit 	ಐವತ್ನಾಲ್ಕು,54,digit 	
829-ಟವೆಲ್,12,digit 	ಅವರ್,:,time 	ಹನ್ನೊಂದು,11,digit 	ಮಿನಿಟ್ಸ್,,time 	
830-ಐದು,5,digit 	ಹದಿನಾಲ್ಕು,14,digit 	
831-ಒಂದು,1,digit 	ಅವರ್,:,time 	
832-ಹನ್ನೊಂದು,11,digit 	ಗಂಟೆ,:,time 	ನಲವತ್ತೊಂಬತ್ತು,49,digit 	ನಿಮಿಷ,,time 	
833-ಏಟ್,8,digit 	ಗಂಟೆ,:,time 	
834-ಸಿಕ್ಸ್,6,digit 	ಅವರ್,:,time 	ನಲವತ್ತನಾಲ್ಕು,44,digit 	ಮಿನಿಟ್ಸ್,,time 	
835-ಐದು,5,digit 	ನಲವತ್ತಾರು,46,digit 	
836-ಹತ್ತು,10,digit 	ಗಂಟೆ,:,time 	
837-ಹನ್ನೆರಡು,12,digit 	ಗಂಟೆ,:,time 	
838-ಒನ್,1,digit 	ಅವರ್,:,time 	
839-ಏಟ್,8,digit 	ಗಂಟೆ,:,time 	ಹನ್ನೆರಡು,12,digit 	ನಿಮಿಷ,,time 	
840-ಏಟ್,8,digit 	ಗಂಟೆ,:,time 	ಐವತ್ತೆಂಟು,58,digit 	ಮಿನಿಟ್ಸ್,,time 	
841-ಟೆನ್,10,digit 	ಗಂಟೆ,:,time 	
842-ಏಟ್,8,digit 	ಹದಿನಾಲ್ಕು,14,digit 	
843-ಆರು,6,digit 	ಗಂಟೆ,:,time 	
844-ತ್ರೀ,3,digit 	ಐವತ್ತು,50,digit 	
845-ಎರಡು,2,digit 	ಇಪ್ಪತ್ತೈದು,25,digit 	
846-ಸೆವೆನ್,7,digit 	ಗಂಟೆ,:,time 	
847-ಐದು,5,digit 	ಆರು,6,digit 	
848-ಹತ್ತು,10,digit 	ಗಂಟೆ,:,time 	ಇಪ್ಪತ್ತೇಳು,27,digit 	ಮಿನಿಟ್ಸ್,,time 	
849-ಒಂದು,1,digit 	ಐವತ್ತೇಳು,57,digit 	
850-ನೈನ್,9,digit 	ಗಂಟೆ,:,time 	
851-ಟೆನ್,10,digit 	ಇಪ್ಪತ್ಮೂರು,23,digit 	
852-ಒಂದು,1,digit 	ಗಂಟೆ,:,time 	
853-ಟೆನ್,10,digit 	ಗಂಟೆ,:,time 	ನಲವತ್ತಾರು,46,digit 	ನಿಮಿಷ,,time 	
854-ಒನ್,1,digit 	ಗಂಟೆ,:,time 	
855-ಏಳು,7,digit 	ಮೂವತ್ತೆರಡು,32,digit 	
856-ಹನ್ನೊಂದು,11,digit 	ಗಂಟೆ,:,time 	ಏಳು,7,digit 	ನಿಮಿಷ,,time 	
857-ತ್ರೀ,3,digit 	ಗಂಟೆ,:,time 	ಇಪ್ಪತ್ನಾಕು,24,digit 	ನಿಮಿಷ,,time 	
858-ಮೂರು,3,digit 	ಗಂಟೆ,:,time 	ಮೂರು,3,digit 	ಮಿನಿಟ್ಸ್,,time 	
859-ಏಟ್,8,digit 	ಗಂಟೆ,:,time 	ಮೂವತ್ತೆರಡು,32,digit 	ನಿಮಿಷ,,time 	
860-ಎಂಟು,8,digit 	ಮೂವತ್ತನಾಲ್ಕು,34,digit 	
861-ಹನ್ನೊಂದು,11,digit 	ಅವರ್,:,time 	ಮೂವತ್ತೊಂಬತ್ತು,39,digit 	ಮಿನಿಟ್ಸ್,,time 	
862-ತ್ರೀ,3,digit 	ಹದಿನೆಂಟು,18,digit 	
863-ಟೂ,2,digit 	ಗಂಟೆ,:,time 	ಮೂವತ್ತೊಂಬತ್ತು,39,digit 	ಮಿನಿಟ್ಸ್,,time 	
864-ಐದು,5,digit 	ಐವತ್ತು,50,digit 	
865-ಐದು,5,digit 	ಗಂಟೆ,:,time 	
866-ಫೈವ್,5,digit 	ಗಂಟೆ,:,time 	ಐವತ್ತೆಂಟು,58,digit 	ಮಿನಿಟ್ಸ್,,time 	
867-ಎಂಟು,8,digit 	ಗಂಟೆ,:,time 	
868-ಸಿಕ್ಸ್,6,digit 	ಗಂಟೆ,:,time 	
869-ಫೋರ್,4,digit 	ಗಂಟೆ,:,time 	
870-ಫೈವ್,5,digit 	ಮೂವತ್ತೊಂಬತ್ತು,39,digit 	
871-ನಾಲ್ಕು,4,digit 	ಅವರ್,:,time 	
872-ಏಳು,7,digit 	ಟೆನ್,10,digit 	
873-ಒನ್,1,digit 	ವರೆ,30,digit 	
874-ಟೆನ್,10,digit 	ಗಂಟೆ,:,time 	
875-ನೈನ್,9,digit 	ಐವತ್ತೊಂಬತ್ತು,59,digit 	
876-ಹನ್ನೆರಡು,12,digit 	ಅವರ್,:,time 	
877-ಹತ್ತು,10,digit 	ನಲವತ್ಮೂರು,43,digit 	
878-ಟೆನ್,10,digit 	ಗಂಟೆ,:,time 	
879-ಟೆನ್,10,digit 	ಗಂಟೆ,:,time 	ಇಪ್ಪತ್ತೆಂಟು,28,digit 	ನಿಮಿಷ,,time 	
880-ಸೆವೆನ್,7,digit 	ಅವರ್,:,time 	
881-ಫೋರ್,4,digit 	ಗಂಟೆ,:,time 	ನಲವತ್ತಾರು,46,digit 	ನಿಮಿಷ,,time 	
882-ಸೆವೆನ್,7,digit 	ಗಂಟೆ,:,time 	
883-ಒಂಬತ್ತು,9,digit 	ಐವತ್ತೇಳು,57,digit 	
884-ಆರು,6,digit 	ಗಂಟೆ,:,time 	
885-ಸೆವೆನ್,7,digit 	ಗಂಟೆ,:,time 	
886-ಐದು,5,digit 	ಗಂಟೆ,:,time 	ಐವತ್ತೊಂಬತ್ತು,59,digit 	ಮಿನಿಟ್ಸ್,,time 	
887-ಟವೆಲ್,12,digit 	ಗಂಟೆ,:,time 	
888-ಟವೆಲ್,12,digit 	ಗಂಟೆ,:,time 	
889-ಟೂ,2,digit 	ಹದಿನೇಳು,17,digit 	
890-ಎಂಟು,8,digit 	ಗಂಟೆ,:,time 	
891-ಹನ್ನೆರಡು,12,digit 	ಗಂಟೆ,:,time 	ಮುಕಾಲು,45,digit 	ನಿಮಿಷ,,time 	
892-ಹನ್ನೊಂದು,11,digit 	ಅವರ್,:,time 	ಮೂರು,3,digit 	ನಿಮಿಷ,,time 	
893-ನಾಲ್ಕು,4,digit 	ನಲವತ್ತೆಂಟು,48,digit 	
894-ಏಳು,7,digit 	ಗಂಟೆ,:,time 	
895-ಲೆವೆನ್,11,digit 	ಗಂಟೆ,:,time 	
896-ಟೆನ್,10,digit 	ಅವರ್,:,time 	
897-ಮೂರು,3,digit 	ಗಂಟೆ,:,time 	ಮೂವತ್ತೈದು,35,digit 	ನಿಮಿಷ,,time 	
898-ಟೂ,2,digit 	ಗಂಟೆ,:,time 	ಐವತ್ತೊಂದು,51,digit 	ನಿಮಿಷ,,time 	
899-ಆರು,6,digit 	ಗಂಟೆ,:,time 	
900-ಹತ್ತು,10,digit 	ಅವರ್,:,time 	ಮೂವತ್ತೆರಡು,32,digit 	ನಿಮಿಷ,,time 	
901-ಎಂಟು,8,digit 	ಇಪ್ಪತ್ತಾರು,26,digit 	
902-ಒಂಬತ್ತು,9,digit 	ಗಂಟೆ,:,time 	ಟ್ವೆಂಟಿ,20,digit 	ಮಿನಿಟ್ಸ್,,time 	
903-ಟವೆಲ್,12,digit 	ಗಂಟೆ,:,time 	ಐವತ್ನಾಲ್ಕು,54,digit 	ಮಿನಿಟ್ಸ್,,time 	
904-ನೈನ್,9,digit 	ಅವರ್,:,time 	ಇಪ್ಪತ್ನಾಕು,24,digit 	ನಿಮಿಷ,,time 	
905-ಏಟ್,8,digit 	ಗಂಟೆ,:,time 	ಇಪ್ಪತ್ಮೂರು,23,digit 	ಮಿನಿಟ್ಸ್,,time 	
906-ಆರು,6,digit 	ಗಂಟೆ,:,time 	
907-ನೈನ್,9,digit 	ಗಂಟೆ,:,time 	
908-ನಾಲ್ಕು,4,digit 	ಗಂಟೆ,:,time 	ಟೆನ್,10,digit 	ನಿಮಿಷ,,time 	
909-ಸೆವೆನ್,7,digit 	ಗಂಟೆ,:,time 	
910-ಒಂದು,1,digit 	ಐವತ್ತೆರಡು,52,digit 	
911-ತ್ರೀ,3,digit 	ಅವರ್,:,time 	
912-ಏಟ್,8,digit 	ಗಂಟೆ,:,time 	
913-ಹನ್ನೊಂದು,11,digit 	ಗಂಟೆ,:,time 	
914-ಟೂ,2,digit 	ಗಂಟೆ,:,time 	ಹದಿನೇಳು,17,digit 	ನಿಮಿಷ,,time 	
915-ಫೋರ್,4,digit 	ಐವತ್ತೊಂದು,51,digit 	
916-ಸೆವೆನ್,7,digit 	ಗಂಟೆ,:,time 	
917-ಏಳು,7,digit 	ಗಂಟೆ,:,time 	ಮೂವತ್ತಾರು,36,digit 	ಮಿನಿಟ್ಸ್,,time 	
918-ಐದು,5,digit 	ಐದು,5,digit 	
919-ನೈನ್,9,digit 	ಗಂಟೆ,:,time 	ಇಪ್ಪತ್ಮೂರು,23,digit 	ಮಿನಿಟ್ಸ್,,time 	
920-ಸಿಕ್ಸ್,6,digit 	ಐವತ್ತು,50,digit 	
921-ಟವೆಲ್,12,digit 	ಟೆನ್,10,digit 	
922-ಟೆನ್,10,digit 	ಮೂವತ್ತೈದು,35,digit 	
923-ಫೋರ್,4,digit 	ಗಂಟೆ,:,time 	ಮೂವತ್ತೊಂಬತ್ತು,39,digit 	ಮಿನಿಟ್ಸ್,,time 	
924-ಎಂಟು,8,digit 	ಗಂಟೆ,:,time 	
925-ಐದು,5,digit 	ಐವತ್ತು,50,digit 	
926-ಒಂಬತ್ತು,9,digit 	ಇಪ್ಪತ್ತು,20,digit 	
927-ಮೂರು,3,digit 	ಇಪ್ಪತ್ತಾರು,26,digit 	
928-ಒಂದು,1,digit 	ಗಂಟೆ,:,time 	
929-ಸಿಕ್ಸ್,6,digit 	ಗಂಟೆ,:,time 	
930-ಟೆನ್,10,digit 	ಗಂಟೆ,:,time 	ಹದಿನಾರು,16,digit 	ಮಿನಿಟ್ಸ್,,time 	
931-ಸೆವೆನ್,7,digit 	ಗಂಟೆ,:,time 	
932-ಟವೆಲ್,12,digit 	ಟ್ವೆಂಟಿ,20,digit 	
933-ಏಟ್,8,digit 	ಗಂಟೆ,:,time 	
934-ಹನ್ನೊಂದು,11,digit 	ಅವರ್,:,time 	ಐವತ್ತೆರಡು,52,digit 	ನಿಮಿಷ,,time 	
935-ಒಂದು,1,digit 	ಗಂಟೆ,:,time 	
936-ಫೋರ್,4,digit 	ಇಪ್ಪತ್ನಾಕು,24,digit 	
937-ಒಂದು,1,digit 	ಅವರ್,:,time 	ಮೂವತ್ತೊಂದು,31,digit 	ಮಿನಿಟ್ಸ್,,time 	
938-ಏಟ್,8,digit 	ಆರು,6,digit 	
939-ಫೋರ್,4,digit 	ಹತ್ತು,10,digit 	
940-ಫೋರ್,4,digit 	ನಲವತ್ತೊಂದು,41,digit 	
941-ನೈನ್,9,digit 	ಗಂಟೆ,:,time 	
942-ಏಳು,7,digit 	ಗಂಟೆ,:,time 	ಇಪ್ಪತ್ತೆರಡು,22,digit 	ಮಿನಿಟ್ಸ್,,time 	
943-ಸೆವೆನ್,7,digit 	ಗಂಟೆ,:,time 	ಇಪ್ಪತ್ಮೂರು,23,digit 	ಮಿನಿಟ್ಸ್,,time 	
944-ಒನ್,1,digit 	ಗಂಟೆ,:,time 	
945-ಎಂಟು,8,digit 	ಇಪ್ಪತ್ತೊಂಬತ್ತು,29,digit 	
946-ಹನ್ನೊಂದು,11,digit 	ಹತ್ತೊಂಬತ್ತು,19,digit 	
947-ಏಳು,7,digit 	ಇಪ್ಪತ್ತೇಳು,27,digit 	
948-ಫೋರ್,4,digit 	ಅವರ್,:,time 	
949-ಲೆವೆನ್,11,digit 	ಗಂಟೆ,:,time 	
950-ಸೆವೆನ್,7,digit 	ಗಂಟೆ,:,time 	ಹನ್ನೊಂದು,11,digit 	ಮಿನಿಟ್ಸ್,,time 	
951-ಫೈವ್,5,digit 	ಗಂಟೆ,:,time 	
952-ಒಂಬತ್ತು,9,digit 	ಗಂಟೆ,:,time 	ಹದಿನಾಲ್ಕು,14,digit 	ಮಿನಿಟ್ಸ್,,time 	
953-ಟವೆಲ್,12,digit 	ಹದಿನೇಳು,17,digit 	
954-ಒನ್,1,digit 	ಗಂಟೆ,:,time 	
955-ನೈನ್,9,digit 	ಗಂಟೆ,:,time 	ಟೆನ್,10,digit 	ನಿಮಿಷ,,time 	
956-ಹತ್ತು,10,digit 	ಇಪ್ಪತ್ತಾರು,26,digit 	
957-ಎಂಟು,8,digit 	ಒಂಬತ್ತು,9,digit 	
958-ಸೆವೆನ್,7,digit 	ಅವರ್,:,time 	ಮೂವತ್ತಮೂರು,33,digit 	ಮಿನಿಟ್ಸ್,,time 	
959-ಹನ್ನೆರಡು,12,digit 	ಗಂಟೆ,:,time 	ಮೂವತ್ತಮೂರು,33,digit 	ನಿಮಿಷ,,time 	
960-ಲೆವೆನ್,11,digit 	ಗಂಟೆ,:,time 	ಆರು,6,digit 	ನಿಮಿಷ,,time 	
961-ಟೂ,2,digit 	ಗಂಟೆ,:,time 	
962-ಒಂಬತ್ತು,9,digit 	ಗಂಟೆ,:,time 	
963-ನಾಲ್ಕು,4,digit 	ಗಂಟೆ,:,time 	ನಲವತ್ತು,40,digit 	ನಿಮಿಷ,,time 	
964-ಎಂಟು,8,digit 	ಗಂಟೆ,:,time 	ಎರಡು,2,digit 	ನಿಮಿಷ,,time 	
965-ಟೂ,2,digit 	ಅವರ್,:,time 	
966-ಐದು,5,digit 	ಗಂಟೆ,:,time 	ಮೂವತ್ತೆಂಟು,38,digit 	ನಿಮಿಷ,,time 	
967-ಹನ್ನೆರಡು,12,digit 	ಗಂಟೆ,:,time 	
968-ಹನ್ನೆರಡು,12,digit 	ಅವರ್,:,time 	ನಾಲ್ಕು,4,digit 	ನಿಮಿಷ,,time 	
969-ಒನ್,1,digit 	ಗಂಟೆ,:,time 	
970-ಟೆನ್,10,digit 	ಗಂಟೆ,:,time 	
971-ನಾಲ್ಕು,4,digit 	ಹನ್ನೊಂದು,11,digit 	
972-ಫೋರ್,4,digit 	ಇಪ್ಪತ್ತೆಂಟು,28,digit 	
973-ಸಿಕ್ಸ್,6,digit 	ನಲವತ್ಮೂರು,43,digit 	
974-ಟೆನ್,10,digit 	ಒಂಬತ್ತು,9,digit 	
975-ಐದು,5,digit 	ಗಂಟೆ,:,time 	
976-ಸೆವೆನ್,7,digit 	ಇಪ್ಪತ್ಮೂರು,23,digit 	
977-ಟವೆಲ್,12,digit 	ಗಂಟೆ,:,time 	
978-ಐದು,5,digit 	ಗಂಟೆ,:,time 	ಇಪ್ಪತ್ತೆರಡು,22,digit 	ಮಿನಿಟ್ಸ್,,time 	
979-ಲೆವೆನ್,11,digit 	ಗಂಟೆ,:,time 	
980-ಹನ್ನೆರಡು,12,digit 	ಗಂಟೆ,:,time 	ಐವತ್ತಾರು,56,digit 	ಮಿನಿಟ್ಸ್,,time 	
981-ಸೆವೆನ್,7,digit 	ಗಂಟೆ,:,time 	
982-ಹನ್ನೆರಡು,12,digit 	ಗಂಟೆ,:,time 	
983-ನೈನ್,9,digit 	ಹನ್ನೆರಡು,12,digit 	
984-ನಾಲ್ಕು,4,digit 	ಅವರ್,:,time 	ಮೂವತ್ತಾರು,36,digit 	ನಿಮಿಷ,,time 	
985-ತ್ರೀ,3,digit 	ಗಂಟೆ,:,time 	
986-ಎರಡು,2,digit 	ಗಂಟೆ,:,time 	ಇಪ್ಪತ್ತೊಂದು,21,digit 	ನಿಮಿಷ,,time 	
987-ಐದು,5,digit 	ಅವರ್,:,time 	ಮೂರು,3,digit 	ನಿಮಿಷ,,time 	
988-ಫೋರ್,4,digit 	ಗಂಟೆ,:,time 	
989-ಆರು,6,digit 	ಗಂಟೆ,:,time 	ಎಂಟು,8,digit 	ನಿಮಿಷ,,time 	
990-ಐದು,5,digit 	ಮೂರು,3,digit 	
991-ಒಂಬತ್ತು,9,digit 	ಗಂಟೆ,:,time 	
992-ಟವೆಲ್,12,digit 	ಗಂಟೆ,:,time 	ಐವತ್ತೆರಡು,52,digit 	ನಿಮಿಷ,,time 	
993-ಐದು,5,digit 	ಗಂಟೆ,:,time 	ಮೂವತ್ತೊಂದು,31,digit 	ನಿಮಿಷ,,time 	
994-ಫೋರ್,4,digit 	ಗಂಟೆ,:,time 	ಮೂವತ್ತೆಂಟು,38,digit 	ಮಿನಿಟ್ಸ್,,time 	
995-ಲೆವೆನ್,11,digit 	ಹತ್ತೊಂಬತ್ತು,19,digit 	
996-ಆರು,6,digit 	ಗಂಟೆ,:,time 	
997-ನಾಲ್ಕು,4,digit 	ಗಂಟೆ,:,time 	ಇಪ್ಪತ್ತು,20,digit 	ಮಿನಿಟ್ಸ್,,time 	
998-ಐದು,5,digit 	ಗಂಟೆ,:,time 	ಹತ್ತೊಂಬತ್ತು,19,digit 	ಮಿನಿಟ್ಸ್,,time 	
999-ಟೂ,2,digit 	ಇಪ್ಪತ್ತೈದು,25,digit 	
1000-ಹನ್ನೊಂದು,11,digit 	ಗಂಟೆ,:,time 	ಇಪ್ಪತ್ತಾರು,26,digit 	ಮಿನಿಟ್ಸ್,,time 	
